verbatimtex
%&latex
\documentclass{article}
\usepackage{amsmath}
\usepackage[T1]{fontenc}
\begin{document}
etex

input geometriesyr16;

beginfig(1);
figure(0,0,4u,4u);
trace grille(0.5) withcolor white;
pair A,B,C,M,N;
marque_p:="plein";
A=pp(1,7);
B=pp(2,1);
C=pp(6,5);
pointe(A);
pointe(B);
pointe(C);
nomme.ulft(A);
nomme.lft(B);
nomme.bot(C);
trace demidroite(A,B);
trace demidroite(A,C);
trace droite(B,C);
M=0.7[A,B];
N=0.7[A,C];
pointe(M);
pointe(N);
nomme.lft(M);
nomme.bot(N);
trace droite(M,N);
label.top(btex (d') etex,1.2[M,N]);
label.top(btex (d) etex,1.1[B,C]);
fin;
endfig;

beginfig(2);
figure(0,0,4u,4u);
trace grille(0.5) withcolor white;
pair E,F,G,P,R;
marque_p:="plein";
E=pp(1,1);
F=pp(2,7);
G=pp(5,5);
pointe(E);
pointe(F);
pointe(G);
nomme.llft(E);
nomme.lft(F);
nomme.bot(G);
trace demidroite(E,F);
trace demidroite(E,G);
trace droite(F,G);
P=0.2[E,F];
R=0.2[E,G];
pointe(P);
pointe(R);
nomme.lft(P);
nomme.bot(R);
trace droite(P,R);
label.top(btex (d') etex,5[P,R]);
label.top(btex (d) etex,1.8[F,G]);
fin;
endfig;

beginfig(3);
figure(0,0,4u,4u);
trace grille(0.5) withcolor white;
pair M,N,P,I,J;
marque_p:="plein";
M=pp(4,7);
N=pp(2,1);
P=pp(7,3);
pointe(M);
pointe(N);
pointe(P);
nomme.ulft(M);
nomme.ulft(N);
nomme.bot(P);
trace demidroite(M,N);
trace demidroite(M,P);
trace droite(N,P);
I=0.6[M,N];
J=0.6[M,P];
pointe(I);
pointe(J);
nomme.ulft(I);
nomme.bot(J);
trace droite(I,J);
label.top(btex (d') etex,1.2[I,J]);
label.top(btex (d) etex,1.1[N,P]);
fin;
endfig;

beginfig(4);
figure(0,0,4u,4u);
trace grille(0.5) withcolor white;
pair S,A,B,U,V;
marque_p:="plein";
S=pp(1,1);
A=pp(1,6);
B=pp(6,6);
pointe(S);
pointe(A);
pointe(B);
nomme.llft(S);
nomme.ulft(A);
nomme.bot(B);
trace demidroite(S,A);
trace demidroite(S,B);
trace droite(A,B);
U=0.8[S,A];
V=0.8[S,B];
pointe(U);
pointe(V);
nomme.ulft(U);
nomme.bot(V);
trace droite(U,V);
label.bot(btex (d') etex,1.5[U,V]);
label.top(btex (d) etex,1.2[A,B]);
fin;
endfig;
