verbatimtex
%&latex
\documentclass{article}
\usepackage{amsmath}
\usepackage[T1]{fontenc}
\begin{document}
etex

input geometriesyr16;

beginfig(1);
figuremainlevee(0,-0.5u,6u,4.5u);
pair E,H,M;
E=u*(1,2);
H=u*(5,1);
M=u*(3,4);
trace triangle(E,H,M);
nomme.lft(E);
nomme.rt(H);
nomme.top(M);
trace cercledia(E,H);
pair I,J,O;
I=cercledia(E,H) intersectionpoint segment(E,M);
J=cercledia(E,H) intersectionpoint segment(H,M);
O=droite(E,J) intersectionpoint droite(H,I);
trace droite(E,J);
trace droite(H,I);
nomme.ulft(I);
nomme.urt(J);
nomme.top(O);
finmainlevee;
endfig;

