input geometriesyr16;

beginfig(1);
figure(0,0,8u,8u);
trace feuillet;
pair A,B,C,I,J;
A=u*(0.5,6);
B=u*(4.5,3);
C=u*(3.2,2.2);
marque_p:="croix";
pointe(A);
nomme.top(A);
pointe(B);
nomme.rt(B);
pointe(C);
nomme.llft(C);
I=u*(3,1);
J=u*(4,7);
trace droite(I,J) withpen pencircle scaled 1.5bp;
label.lrt(btex $(d)$ etex,I);
fin;
endfig;

beginfig(2);
figure(0,0,8u,8u);
trace feuillet;
pair A,B,C,I,J;
A=u*(2.5,7.5);
B=u*(4,1.2);
C=u*(6,3);
marque_p:="croix";
pointe(A);
nomme.rt(A);
pointe(B);
nomme.llft(B);
pointe(C);
nomme.lrt(C);
I=u*(1,6);
J=u*(7,4);
trace droite(I,J) withpen pencircle scaled 1.5bp;
label.lrt(btex $(d)$ etex,I);
fin;
endfig;

beginfig(3);
figure(0,0,8u,8u);
trace feuillet;
pair A,B,C,I,J;
A=u*(2.5,1.5);
B=u*(7.4,6.2);
C=u*(7.5,4);
marque_p:="croix";
pointe(A);
nomme.rt(A);
pointe(B);
nomme.llft(B);
pointe(C);
nomme.lrt(C);
I=u*(5,1);
J=u*(5.5,7);
trace droite(I,J) withpen pencircle scaled 1.5bp;
label.lrt(btex $(d)$ etex,I);
fin;
endfig;

beginfig(4);
figure(0,0,8u,8u);
trace feuillet;
pair A,B,C,I,J;
A=u*(2,5);
B=u*(5,1.5);
C=u*(7,7);
marque_p:="croix";
pointe(A);
nomme.rt(A);
pointe(B);
nomme.llft(B);
pointe(C);
nomme.lrt(C);
I=u*(1,4);
J=u*(7,5.5);
trace droite(I,J) withpen pencircle scaled 1.5bp;
label.lrt(btex $(d)$ etex,I);
fin;
endfig;

beginfig(5);
figure(0,0,8u,8u);
trace feuillet;
pair A,B,C,D,E,F,I,J;
A=u*(0.2,4);
D=u*(2.2,1);
B=u*(3.2,1.5);
E=u*(3.375,3.6);
C=u*(7,7.3);
F=u*(4.5,6.25);
marque_p:="croix";
pointe(A);
nomme.rt(A);
pointe(B);
nomme.lrt(B);
pointe(C);
nomme.urt(C);
pointe(D);
nomme.lft(D);
pointe(E);
nomme.urt(E);
pointe(F);
nomme.ulft(F);
trace segment(A,D);
trace segment(B,E);
trace segment(C,F);
I=u*(1,4.5);
J=u*(7,4);
trace droite(I,J) withpen pencircle scaled 1.5bp;
label.lrt(btex $(d)$ etex,I);
fin;
endfig;

beginfig(6);
figure(0,0,8u,8u);
trace feuillet;
pair A,B,C,D,E,F,I,J;
A=u*(0.5,7);
D=u*(3.25,5.5);
B=u*(5.5,3);
E=u*(1.5,1);
C=u*(2.5,5);
F=u*(7,4.25);
marque_p:="croix";
pointe(A);
nomme.top(A);
pointe(B);
nomme.rt(B);
pointe(C);
nomme.llft(C);
pointe(D);
nomme.rt(D);
pointe(E);
nomme.lft(E);
pointe(F);
nomme.lrt(F);
trace segment(A,D);
trace segment(B,E);
trace segment(C,F);
I=u*(4,1);
J=u*(3,7);
trace droite(I,J) withpen pencircle scaled 1.5bp;
label.lrt(btex $(d)$ etex,I);
fin;
endfig;

beginfig(7);
figure(0,0,8u,8u);
trace feuillet;
pair A,B,C,D,I,J;
A=u*(0.5,4);
B=u*(2.5,4);
C=u*(1,5);
D=u*(7,7);
marque_p:="croix";
pointe(A);
nomme.top(A);
pointe(B);
nomme.top(B);
pointe(C);
nomme.top(C);
pointe(D);
nomme.top(D);
trace droite(A,B);
trace droite(C,D);
I=u*(2,1);
J=u*(5,7);
trace droite(I,J) withpen pencircle scaled 1.5bp;
label.lrt(btex $(d)$ etex,I);
fin;
endfig;

beginfig(8);
figure(0,0,8u,8u);
trace feuillet;
pair A,B,C,D,I,J;
A=u*(0.5,4);
B=u*(2,7);
C=u*(1.25,4.5);
D=u*(7,2);
marque_p:="croix";
pointe(A);
nomme.top(A);
pointe(B);
nomme.top(B);
pointe(C);
nomme.top(C);
pointe(D);
nomme.top(D);
trace droite(A,B);
trace droite(C,D);
I=u*(2,1);
J=u*(5,7);
trace droite(I,J) withpen pencircle scaled 1.5bp;
label.lrt(btex $(d)$ etex,I);
fin;
endfig;

beginfig(9);
figure(0,0,8u,8u);
trace feuillet;
pair A,B,I,J;
A=u*(2.5,6);
B=u*(5,1.2);
marque_p:="croix";
pointe(A);
nomme.rt(A);
pointe(B);
nomme.llft(B);
trace cercles(A,2cm);
trace cercles(B,1.2cm);
I=u*(1,4);
J=u*(7,2);
trace droite(I,J) withpen pencircle scaled 1.5bp;
label.lrt(btex $(d)$ etex,I);
fin;
endfig;

beginfig(10);
figure(0,0,8u,8u);
trace feuillet;
pair A,B,I,J;
A=u*(3,6);
B=u*(5,1.6);
marque_p:="croix";
pointe(A);
nomme.rt(A);
pointe(B);
nomme.llft(B);
trace cercles(A,2.4cm);
trace cercles(B,1.6cm);
I=u*(3.5,1);
J=u*(4.5,7);
trace droite(I,J) withpen pencircle scaled 1.5bp;
label.lrt(btex $(d)$ etex,I);
fin;
endfig;