verbatimtex
%&latex
\documentclass{article}
%\usepackage{perso-thierry}
\usepackage{amsmath}
\usepackage{fourier}
\begin{document}
etex


input newcourbes;
input couleur;
input geometriesyr16;


beginfig(1);
repere(0,0,-5,65,-4,40,0.25cm,0.2cm);
quadc_x(1,orange);
quadc_y(1,orange);
quadc_x(5,noir);
quadc_y(5,noir);
r_axes;
r_origine;
grad_x(10,10,noir);
grad_y(5,5,noir);
label.top(btex $v$ en km.h$^{-1}$ etex,r_p(60,0));
label.top(btex $d_F$ en m etex,r_p(0,35));
r_fin;
endfig;

beginfig(2);
repere(0,0,-9,145,-12,260,0.11cm,0.04cm);
quadc_x(2,orange);
quadc_y(5,orange);
quadc_x(10,noir);
quadc_y(50,noir);
r_axes;
r_origine;
grad_x(10,10,noir);
grad_y(50,50,noir);
label.top(btex $v$ en km.h$^{-1}$ etex,r_p(130,0));
label.top(btex $d$ en m etex,r_p(0,250));
r_fin;
endfig;