verbatimtex
%&latex
\documentclass{article}
%\usepackage{perso-thierry}
\usepackage{amsmath,mathrsfs}
\usepackage[T1]{fontenc}
\begin{document}
etex


input geometriesyr16;


beginfig(1);
figure(-4u,-4u,4u,4u);
pair O,A[];
O=u*(0,0);
pointe(O);
nomme.lrt(O);
path cc;
cc=cercles(O,3u);
trace cc;
for i=1 upto 6:
 A[i]=pointarc(cc,60*i);
 trace segment(O,A[i]) withcolor 0.5white;
 pointe(A[i]);
endfor;
trace polygone(A1,A2,A3,A4,A5,A6);
for j=1 upto 4:
 trace codesegments(A[j],A[j+1],A[j+1],A[j+2],1);
 trace codesegments(A1,A6,A1,A2,1);
endfor
label.rt(btex $A$ etex,A6);
label.urt(btex $B$ etex,A1);
label.ulft(btex $C$ etex,A2);
label.lft(btex $D$ etex,A3);
label.llft(btex $E$ etex,A4);
label.lrt(btex $F$ etex,A5);
fin;
endfig;


beginfig(2);
figure(0,0,10u,10u);
pair A,B,C,D,E,F,G,H,O;
O=u*(6,3);
path cc;
cc=cercles(O,1.5u);
A=pointarc(cc,180);
B=rotation(A,O,-60);
C=rotation(B,O,-60);
D=rotation(C,O,-60);
E=rotation(D,O,-60);
F=rotation(E,O,-60);
G-B=A-F;
H-C=C-E;
path cd;
cd=polygone(A,B,C,D,E,F);
trace cd;
trace cd shifted(A-D+B-C);
trace cd shifted(A-C);
trace cd shifted(D-B);
trace cd shifted(A-E);
trace cd shifted(D-F);
trace cd shifted(B-F);
trace cd shifted(A-D+B-C+B-F);
marque_p:="non";
nomme.lft(F);
nomme.llft(A);
nomme.lft(B);
nomme.ulft(G);
nomme.urt(H);
nomme.rt(C);
nomme.urt(D);
nomme.rt(E);
fin;
endfig;