verbatimtex
%&latex
\documentclass{article}
\usepackage{amsmath}
\usepackage[T1]{fontenc}
\begin{document}
etex

input geometriesyr16;

u:=0.7cm;

beginfig(1);
figure(-u,-1u,9u,3.5u);
trace feuillet withcolor blanc;
pair A,B,C,D,E,F;
A=u*(0.5,0.5);
B=u*(4.5,1);
C=u*(5.5,3);
D=C shifted(A-B);
F=u*(7.5,-0.5);
E=F shifted(C-B);
marque_p:="croix";
pointe(A,B,C,D,E,F);
nomme.llft(A);
nomme.bot(B);
nomme.urt(C);
nomme.ulft(D);
nomme.rt(E);
nomme.rt(F);
trace polygone(A,B,C,D);
trace polygone(B,C,E,F);
fin;
endfig;

beginfig(2);
figure(-u,0,6u,4u);
trace feuillet withcolor blanc;
pair A,B,C,D;
A=u*(0.5,0.5);
B=u*(4.5,1);
C=u*(5.5,3.5);
D=C shifted(A-B);
marque_p:="croix";
pointe(A,B,C,D);
nomme.llft(A);
nomme.lrt(B);
nomme.urt(C);
nomme.ulft(D);
trace polygone(A,B,C,D);
trace segment(A,C) dashed evenly;
trace segment(B,D) dashed evenly;
pair O;
O=iso(A,C);
pointe(O);
nomme.top(O);
fin;
endfig;

beginfig(2);
figure(-u,0,8u,4u);
trace feuillet withcolor blanc;
pair A,B,C,D;
A=u*(0.5,3.5);
B=u*(4.5,3.5);
C=u*(5.5,0.5);
D=C shifted(A-B);
marque_p:="croix";
pointe(A,B,C,D);
nomme.top(A);
nomme.top(B);
nomme.bot(C);
nomme.bot(D);
trace polygone(A,B,C,D);
trace segment(A,C) dashed evenly;
trace segment(B,D) dashed evenly;
pair O,E;
O=iso(A,C);
pointe(O);
nomme.top(O);
E=C shifted(B-O);
pointe(E);
nomme.rt(E);
trace polygone(O,B,E,C);
fin;
endfig;

