input geometriesyr16;

beginfig(1);
figure(0,0,8u,7u);
trace grille(0.5) withcolor orange;
trace feuillet;
pair A;
A=pp(4,5);
marque_p:="croix";
pointe(A);
nomme.llft(A);
drawarrow pp(5,2)--pp(13,1);
trace appelation(pp(5,2),pp(13,1),-2mm,btex $\vec{u}$ etex);
drawarrow pp(2,6)--pp(5,11);
trace appelation(pp(2,6),pp(5,11),2mm,btex $\vec{v}$ etex);
fin;
endfig;

beginfig(2);
figure(0,0,8u,7u);
trace grille(0.5) withcolor blanc;
trace feuillet;
pair A;
A=pp(12,3);
marque_p:="croix";
pointe(A);
nomme.llft(A);
drawarrow pp(13,6)--pp(12,12);
trace appelation(pp(12,12),pp(13,6),2mm,btex $\vec{u}$ etex);
drawarrow pp(8,10)--pp(3,13);
trace appelation(pp(3,13),pp(8,10),2mm,btex $\vec{v}$ etex);
fin;
endfig;

beginfig(3);
figure(0,0,8u,7u);
trace grille(0.5) withcolor orange;
trace feuillet;
pair A,B,C;
A=pp(2,7);
B=pp(11,9);
C=pp(4,2);
marque_p:="croix";
pointe(A);
pointe(B);
pointe(C);
nomme.ulft(A);
nomme.urt(B);
nomme.bot(C);
fin;
endfig;

beginfig(4);
figure(0,0,8u,7u);
trace grille(0.5) withcolor blanc;
trace feuillet;
pair A,B,C;
A=pp(3,4);
B=pp(10,6);
C=pp(13,9);
marque_p:="croix";
pointe(A);
pointe(B);
pointe(C);
nomme.llft(A);
nomme.lrt(B);
nomme.rt(C);
fin;
endfig;

beginfig(5);
figure(0,0,8u,7u);
trace grille(0.5) withcolor orange;
trace feuillet;
pair A,B,C,D,E;
A=pp(5,11);
B=pp(11,12);
C=pp(13,8);
D=pp(11,6);
E=pp(6,4);
marque_p:="croix";
pointe(A);
pointe(B);
pointe(C);
pointe(D);
pointe(E);
nomme.ulft(A);
nomme.urt(B);
nomme.rt(C);
nomme.lrt(D);
nomme.bot(E);
fin;
endfig;

beginfig(6);
figure(0,0,8u,7u);
trace grille(0.5) withcolor blanc;
trace feuillet;
pair A,B,C,D,E;
A=pp(2,9);
B=pp(7,12);
C=pp(3,2);
D=pp(4,7);
E=pp(6,1);
marque_p:="croix";
pointe(A);
pointe(B);
pointe(C);
pointe(D);
pointe(E);
nomme.ulft(A);
nomme.urt(B);
nomme.llft(C);
nomme.lft(D);
nomme.rt(E);
fin;
endfig;
