verbatimtex
%&latex
\documentclass{article}
%\usepackage{perso-thierry}
\usepackage{amsmath,mathrsfs}
\usepackage[T1]{fontenc}
\begin{document}
etex


input geometriesyr16;

beginfig(1);
figure(0,0,4.5u,3.5u);
pair O,M,N;
O=u*(1,1);
M=u*(4,0.5);
N=rotation(M,O,50);
marque_p:="plein";
pointe(O);
pointe(M);
pointe(N);
label.lft(btex $O$ etex,O);
label.bot(btex $M$ etex,M);
label.lft(btex $M'$ etex,N);
trace demidroite(O,M);
trace demidroite(O,N);
trace codesegments(O,M,O,N,2);
trace codeangle.rt(M,O,N,0,btex $\alpha$ etex);
drawarrow arccercle(M,N,O) dashed evenly;
fin;
endfig;



beginfig(2);
figure(-4u,-4u,4u,4u);
pair O,A[];
O=u*(0,0);
pointe(O);
nomme.lrt(O);
path cc;
cc=cercles(O,3u);
trace cc;
for i=1 upto 3:
 A[i]=pointarc(cc,120*i);
 trace segment(O,A[i]) withcolor 0.5white;
 pointe(A[i]);
endfor;
for j=1 upto 1:
 trace codesegments(A[j],A[j+1],A[j+1],A[j+2],1);
 trace codesegments(A1,A3,A1,A2,1);
endfor
trace polygone(A1,A2,A3);
trace codeangle.ulft(A1,O,A2,0,btex {\Large $120^{\circ}$} etex);
fin;
endfig;

beginfig(3);
figure(-4u,-4u,4u,4u);
pair O,A[];
O=u*(0,0);
pointe(O);
nomme.lrt(O);
path cc;
cc=cercles(O,3u);
trace cc;
for i=1 upto 4:
 A[i]=pointarc(cc,90*i);
 trace segment(O,A[i]) withcolor 0.5white;
 pointe(A[i]);
endfor;
trace polygone(A1,A2,A3,A4);
trace codeangle.ulft(A1,O,A2,0,btex {\Large $90^{\circ}$} etex);
for j=1 upto 2:
 trace codesegments(A[j],A[j+1],A[j+1],A[j+2],2);
 trace codesegments(A1,A4,A1,A2,2);
endfor
fin;
endfig;

beginfig(4);
figure(-4u,-4u,4u,4u);
pair O,A[];
O=u*(0,0);
pointe(O);
nomme.lrt(O);
path cc;
cc=cercles(O,3u);
trace cc;
for i=1 upto 6:
 A[i]=pointarc(cc,60*i);
 trace segment(O,A[i]) withcolor 0.5white;
 pointe(A[i]);
endfor;
trace polygone(A1,A2,A3,A4,A5,A6);
trace codeangle.top(A1,O,A2,0,btex {\Large $60^{\circ}$} etex);
for j=1 upto 4:
 trace codesegments(A[j],A[j+1],A[j+1],A[j+2],3);
 trace codesegments(A1,A6,A1,A2,3);
endfor
fin;
endfig;

beginfig(5);
figure(-4u,-4u,4u,4u);
pair O,A[];
O=u*(0,0);
pointe(O);
nomme.lrt(O);
path cc;
cc=cercles(O,3u);
trace cc;
for i=1 upto 8:
 A[i]=pointarc(cc,45*i);
 trace segment(O,A[i]) withcolor 0.5white;
 pointe(A[i]);
endfor;
trace polygone(A1,A2,A3,A4,A5,A6,A7,A8);
trace codeangle.urt(A1,O,A2,0,btex {\Large $45^{\circ}$} etex);
for j=1 upto 6:
 trace codesegments(A[j],A[j+1],A[j+1],A[j+2],4);
 trace codesegments(A1,A8,A1,A2,4);
endfor
fin;
endfig;

