verbatimtex
%&latex
\documentclass{article}
%\usepackage{perso-thierry}
\usepackage{amsmath}
\usepackage[T1]{fontenc}
\begin{document}
etex


input newcourbes;
input couleur;
input geometriesyr16;

beginfig(1);
figure(0,0,5u,4u);
pair A,B,C,D,M;
A=u*(1,1);
B=u*(4,1);
C=u*(4,3);
D=u*(1,3);
M=u*(3.2,1);
marque_p:="plein";
MarquePoint(M);
trace segment(D,M);
remplis polygone(D,M,B,C) withcolor gris;
trace cotation(D,C,2mm,3mm,btex 5cm etex);
trace cotation(B,C,-2mm,-3mm,btex 4cm etex);
trace cotation(A,M,-2mm,-3mm,btex $x$ etex);
trace polygone(A,B,C,D);
fin;
endfig;

beginfig(2);
figure(0,0,8u,4u);
pair A,B,C,D,I,J;
A=u*(2,1);
B=u*(6,1);
C=u*(6,3);
D=u*(2,3);
I=iso(D,A);
J=iso(B,C);
path cc,cd;
cc=cercles(I,D);
trace cc;
cd=cercles(J,B);
trace cd;

trace cotation(A,B,-2mm,-3mm,btex 10cm etex);

remplis polygone(A,B,C,D) withcolor blanc;
trace segment(D,A) dashed evenly;
trace segment(B,C) dashed evenly;
trace segment(A,B);
trace segment(C,D);
trace cotation(B,C,2mm,3mm,btex $x$ etex);
fin;
endfig;

beginfig(3);
figure(0,0,6u,4u);
pair A,B,C,D,E,F;
A=u*(1,1);
B=u*(5,1);
C=u*(5,2.5);
D=u*(1,2.5);
E=u*(5,3.5);
F=u*(1,3.5);
remplis polygone(A,B,C,D) withcolor gris;
trace polygone(A,B,E,F);
trace segment(C,D) dashed evenly;
trace cotation(A,B,-2mm,-3mm,btex 6cm etex);
trace cotation(B,E,-2mm,-3mm,btex 5cm etex);
trace cotation(C,E,2mm,3mm,btex $x$ etex);
fin;
endfig;

