%!PS-Adobe-3.0 EPSF-3.0
%%Creator: EpsGraphics2D 0.9.0 by Paul Mutton, http://www.jibble.org/
%%Title: GeoGebra, http://www.geogebra.at
%%CreationDate: Sun Dec 11 15:55:29 CET 2005
%%BoundingBox: 0 0 201 187
%%DocumentData: Clean7Bit
%%DocumentProcessColors: Black
%%ColorUsage: Color
%%Origin: 0 0
%%Pages: 1
%%Page: 1 1
%%EndComments

gsave
-0.0 187.0 translate
1.0 setlinewidth
10.0 setmiterlimit
0 setlinejoin
2 setlinecap
[ ] 0 setdash
gsave
newpath
0.0 -0.0 moveto
201.07086 -0.0 lineto
201.07086 -187.08661 lineto
0.0 -187.08661 lineto
0.0 -0.0 lineto
closepath
clip
newpath
1.0 1.0 1.0 setrgbcolor
newpath
0.0 -0.0 moveto
201.07086 -0.0 lineto
201.07086 -187.08661 lineto
0.0 -187.08661 lineto
0.0 -0.0 lineto
closepath
fill
newpath
0.0 0.0 0.0 setrgbcolor
1.0 setlinewidth
10.0 setmiterlimit
1 setlinejoin
0 setlinecap
[ 1.0 3.0 ] 0 setdash
newpath
0.0 -155.62204 moveto
201.07086 -155.62204 lineto
stroke
newpath
0.0 0.0 0.0 setrgbcolor
1.0 setlinewidth
10.0 setmiterlimit
1 setlinejoin
0 setlinecap
[ 1.0 3.0 ] 0 setdash
newpath
103.37008 -13.889764 moveto
103.37008 -155.62204 lineto
stroke
newpath
0.0 0.0 0.0 setrgbcolor
0.5 setlinewidth
10.0 setmiterlimit
1 setlinejoin
1 setlinecap
[ ] 0 setdash
newpath
103.37008 -42.23622 moveto
18.33071 -155.62204 lineto
stroke
newpath
0.0 0.0 0.0 setrgbcolor
0.5 setlinewidth
10.0 setmiterlimit
1 setlinejoin
1 setlinecap
[ ] 0 setdash
newpath
103.37008 -42.23622 moveto
188.40945 -155.62204 lineto
stroke
newpath
0.0 0.0 1.0 setrgbcolor
newpath
104.50394 -13.889764 moveto
104.50394 -14.515976 103.99629 -15.0236225 103.37008 -15.0236225 curveto
102.743866 -15.0236225 102.23622 -14.515976 102.23622 -13.889764 curveto
102.23622 -13.263552 102.743866 -12.755905 103.37008 -12.755905 curveto
103.99629 -12.755905 104.50394 -13.263552 104.50394 -13.889764 curveto
closepath
fill
newpath
0.0 0.0 0.0 setrgbcolor
1.0 setlinewidth
10.0 setmiterlimit
1 setlinejoin
1 setlinecap
[ ] 0 setdash
newpath
104.50394 -13.889764 moveto
104.50394 -14.515976 103.99629 -15.0236225 103.37008 -15.0236225 curveto
102.743866 -15.0236225 102.23622 -14.515976 102.23622 -13.889764 curveto
102.23622 -13.263552 102.743866 -12.755905 103.37008 -12.755905 curveto
103.99629 -12.755905 104.50394 -13.263552 104.50394 -13.889764 curveto
closepath
stroke
newpath
0.49019608 0.49019608 1.0 setrgbcolor
newpath
104.50394 -155.62204 moveto
104.50394 -156.24826 103.99629 -156.7559 103.37008 -156.7559 curveto
102.743866 -156.7559 102.23622 -156.24826 102.23622 -155.62204 curveto
102.23622 -154.99583 102.743866 -154.48819 103.37008 -154.48819 curveto
103.99629 -154.48819 104.50394 -154.99583 104.50394 -155.62204 curveto
closepath
fill
newpath
0.0 0.0 0.0 setrgbcolor
1.0 setlinewidth
10.0 setmiterlimit
1 setlinejoin
1 setlinecap
[ ] 0 setdash
newpath
104.50394 -155.62204 moveto
104.50394 -156.24826 103.99629 -156.7559 103.37008 -156.7559 curveto
102.743866 -156.7559 102.23622 -156.24826 102.23622 -155.62204 curveto
102.23622 -154.99583 102.743866 -154.48819 103.37008 -154.48819 curveto
103.99629 -154.48819 104.50394 -154.99583 104.50394 -155.62204 curveto
closepath
stroke
newpath
0.0 0.0 0.0 setrgbcolor
newpath
104.50394 -42.23622 moveto
104.50394 -42.862434 103.99629 -43.37008 103.37008 -43.37008 curveto
102.743866 -43.37008 102.23622 -42.862434 102.23622 -42.23622 curveto
102.23622 -41.61001 102.743866 -41.102364 103.37008 -41.102364 curveto
103.99629 -41.102364 104.50394 -41.61001 104.50394 -42.23622 curveto
closepath
fill
newpath
0.0 0.0 0.0 setrgbcolor
1.0 setlinewidth
10.0 setmiterlimit
1 setlinejoin
1 setlinecap
[ ] 0 setdash
newpath
104.50394 -42.23622 moveto
104.50394 -42.862434 103.99629 -43.37008 103.37008 -43.37008 curveto
102.743866 -43.37008 102.23622 -42.862434 102.23622 -42.23622 curveto
102.23622 -41.61001 102.743866 -41.102364 103.37008 -41.102364 curveto
103.99629 -41.102364 104.50394 -41.61001 104.50394 -42.23622 curveto
closepath
stroke
newpath
0.0 0.0 0.0 setrgbcolor
newpath
105.4311 -40.062992 moveto
105.4311 -36.81496 lineto
107.77559 -36.81496 lineto
107.77559 -37.19882 lineto
105.862206 -37.19882 lineto
105.862206 -38.190945 lineto
107.65748 -38.190945 lineto
107.65748 -38.574802 lineto
105.862206 -38.574802 lineto
105.862206 -39.679134 lineto
107.85236 -39.679134 lineto
107.85236 -40.062992 lineto
105.4311 -40.062992 lineto
closepath
fill
newpath
0.2509804 0.2509804 0.2509804 setrgbcolor
newpath
19.464567 -155.62204 moveto
19.464567 -156.24826 18.95692 -156.7559 18.33071 -156.7559 curveto
17.704496 -156.7559 17.19685 -156.24826 17.19685 -155.62204 curveto
17.19685 -154.99583 17.704496 -154.48819 18.33071 -154.48819 curveto
18.95692 -154.48819 19.464567 -154.99583 19.464567 -155.62204 curveto
closepath
fill
newpath
0.0 0.0 0.0 setrgbcolor
1.0 setlinewidth
10.0 setmiterlimit
1 setlinejoin
1 setlinecap
[ ] 0 setdash
newpath
19.464567 -155.62204 moveto
19.464567 -156.24826 18.95692 -156.7559 18.33071 -156.7559 curveto
17.704496 -156.7559 17.19685 -156.24826 17.19685 -155.62204 curveto
17.19685 -154.99583 17.704496 -154.48819 18.33071 -154.48819 curveto
18.95692 -154.48819 19.464567 -154.99583 19.464567 -155.62204 curveto
closepath
stroke
newpath
0.2509804 0.2509804 0.2509804 setrgbcolor
newpath
15.868111 -153.07086 moveto
15.868111 -149.82283 lineto
18.059055 -149.82283 lineto
18.059055 -150.2067 lineto
16.299213 -150.2067 lineto
16.299213 -151.21063 lineto
17.822834 -151.21063 lineto
17.822834 -151.59448 lineto
16.299213 -151.59448 lineto
16.299213 -153.07086 lineto
15.868111 -153.07086 lineto
closepath
fill
newpath
0.2509804 0.2509804 0.2509804 setrgbcolor
newpath
189.5433 -155.62204 moveto
189.5433 -156.24826 189.03566 -156.7559 188.40945 -156.7559 curveto
187.78323 -156.7559 187.27559 -156.24826 187.27559 -155.62204 curveto
187.27559 -154.99583 187.78323 -154.48819 188.40945 -154.48819 curveto
189.03566 -154.48819 189.5433 -154.99583 189.5433 -155.62204 curveto
closepath
fill
newpath
0.0 0.0 0.0 setrgbcolor
1.0 setlinewidth
10.0 setmiterlimit
1 setlinejoin
1 setlinecap
[ ] 0 setdash
newpath
189.5433 -155.62204 moveto
189.5433 -156.24826 189.03566 -156.7559 188.40945 -156.7559 curveto
187.78323 -156.7559 187.27559 -156.24826 187.27559 -155.62204 curveto
187.27559 -154.99583 187.78323 -154.48819 188.40945 -154.48819 curveto
189.03566 -154.48819 189.5433 -154.99583 189.5433 -155.62204 curveto
closepath
stroke
newpath
0.2509804 0.2509804 0.2509804 setrgbcolor
newpath
191.98228 -152.17323 moveto
191.98228 -151.79527 lineto
193.35236 -151.78937 lineto
193.35236 -152.9941 lineto
193.14369 -153.16339 192.92717 -153.29036 192.70276 -153.375 curveto
192.47835 -153.45964 192.24803 -153.50197 192.01181 -153.50197 curveto
191.69292 -153.50197 191.40256 -153.43405 191.14075 -153.29823 curveto
190.87894 -153.1624 190.68208 -152.96555 190.5502 -152.70767 curveto
190.4183 -152.4498 190.35236 -152.1614 190.35236 -151.84251 curveto
190.35236 -151.52362 190.4183 -151.22736 190.5502 -150.95374 curveto
190.68208 -150.68011 190.87204 -150.47736 191.12007 -150.34547 curveto
191.3681 -150.2136 191.65355 -150.14764 191.97638 -150.14764 curveto
192.2126 -150.14764 192.42519 -150.18504 192.61417 -150.25984 curveto
192.80315 -150.33464 192.95178 -150.43996 193.06004 -150.57579 curveto
193.1683 -150.71161 193.25 -150.88976 193.30511 -151.11023 curveto
192.92126 -151.21654 lineto
192.87007 -151.05118 192.80806 -150.92126 192.73523 -150.82677 curveto
192.6624 -150.73228 192.55907 -150.6565 192.4252 -150.59941 curveto
192.29134 -150.54233 192.1437 -150.51378 191.98228 -150.51378 curveto
191.78543 -150.51378 191.61516 -150.5433 191.47145 -150.60236 curveto
191.32776 -150.66142 191.21161 -150.74016 191.12303 -150.83858 curveto
191.03445 -150.93701 190.96654 -151.04527 190.9193 -151.16339 curveto
190.83661 -151.36418 190.79527 -151.5807 190.79527 -151.81299 curveto
190.79527 -152.10432 190.84547 -152.34744 190.94586 -152.54233 curveto
191.04625 -152.7372 191.19095 -152.88188 191.37993 -152.97638 curveto
191.56891 -153.07086 191.77165 -153.1181 191.98819 -153.1181 curveto
192.17323 -153.1181 192.35432 -153.0817 192.5315 -153.00887 curveto
192.70866 -152.93604 192.84251 -152.86024 192.93307 -152.7815 curveto
192.93307 -152.17323 lineto
191.98228 -152.17323 lineto
closepath
fill
newpath
0.0 0.0 0.0 setrgbcolor
newpath
43.080708 -145.51181 moveto
44.32677 -142.26378 lineto
44.787403 -142.26378 lineto
46.116142 -145.51181 lineto
45.63189 -145.51181 lineto
45.24803 -144.52559 lineto
43.895668 -144.52559 lineto
43.535435 -145.51181 lineto
43.080708 -145.51181 lineto
closepath
44.019684 -144.17717 moveto
45.11811 -144.17717 lineto
44.781498 -143.27953 lineto
44.675198 -143.00787 44.598427 -142.78346 44.55118 -142.6063 curveto
44.507874 -142.81496 44.44882 -143.02165 44.374016 -143.22638 curveto
44.019684 -144.17717 lineto
closepath
46.412895 -142.72441 moveto
46.412895 -142.26378 lineto
46.81447 -142.26378 lineto
46.81447 -142.72441 lineto
46.412895 -142.72441 lineto
closepath
46.412895 -145.51181 moveto
46.412895 -143.16142 lineto
46.81447 -143.16142 lineto
46.81447 -145.51181 lineto
46.412895 -145.51181 lineto
closepath
47.414616 -145.51181 moveto
47.414616 -143.16142 lineto
47.774853 -143.16142 lineto
47.774853 -143.51575 lineto
47.865402 -143.35039 47.949066 -143.24113 48.025837 -143.18799 curveto
48.102608 -143.13484 48.18824 -143.10826 48.282726 -143.10826 curveto
48.416584 -143.10826 48.55241 -143.1496 48.69021 -143.23228 curveto
48.55438 -143.60432 lineto
48.455956 -143.54527 48.359497 -143.51575 48.26501 -143.51575 curveto
48.17446 -143.51575 48.094734 -143.54233 48.025837 -143.59547 curveto
47.95694 -143.64862 47.90871 -143.72244 47.881153 -143.81693 curveto
47.833908 -143.95866 47.810284 -144.1122 47.810284 -144.27756 curveto
47.810284 -145.51181 lineto
47.414616 -145.51181 lineto
closepath
50.537155 -144.7559 moveto
50.950542 -144.80315 lineto
50.88755 -145.0433 50.76747 -145.23032 50.590305 -145.36417 curveto
50.41314 -145.49803 50.188732 -145.56496 49.917076 -145.56496 curveto
49.57456 -145.56496 49.301918 -145.45866 49.099163 -145.24606 curveto
48.896408 -145.03346 48.79503 -144.73622 48.79503 -144.35432 curveto
48.79503 -143.96063 48.897392 -143.65453 49.102116 -143.43602 curveto
49.30684 -143.21751 49.57062 -143.10826 49.893456 -143.10826 curveto
50.208416 -143.10826 50.465305 -143.21457 50.664124 -143.42717 curveto
50.86294 -143.63977 50.962353 -143.94095 50.962353 -144.3307 curveto
50.962353 -144.35432 50.962353 -144.38976 50.962353 -144.43701 curveto
49.208416 -144.43701 lineto
49.224163 -144.69685 49.296997 -144.89468 49.426918 -145.03052 curveto
49.55684 -145.16634 49.720226 -145.23425 49.917076 -145.23425 curveto
50.062748 -145.23425 50.187748 -145.19586 50.292076 -145.1191 curveto
50.396408 -145.04233 50.4781 -144.92126 50.537155 -144.7559 curveto
closepath
49.232037 -144.1122 moveto
50.54306 -144.1122 lineto
50.527313 -143.9114 50.4781 -143.76181 50.395424 -143.66339 curveto
50.265503 -143.50984 50.100147 -143.43307 49.89936 -143.43307 curveto
49.71432 -143.43307 49.55979 -143.4941 49.435776 -143.61613 curveto
49.31176 -143.73819 49.243847 -143.90353 49.232037 -144.1122 curveto
closepath
53.475147 -146.4685 moveto
53.254677 -146.18898 53.068653 -145.86319 52.917076 -145.49113 curveto
52.765503 -145.1191 52.689716 -144.73425 52.689716 -144.33661 curveto
52.689716 -143.98622 52.744835 -143.6496 52.85507 -143.32677 curveto
52.988926 -142.95276 53.195618 -142.5807 53.475147 -142.21063 curveto
53.758614 -142.21063 lineto
53.581448 -142.51772 53.463337 -142.73622 53.40428 -142.86613 curveto
53.313732 -143.07086 53.242867 -143.28346 53.191685 -143.50394 curveto
53.128693 -143.77953 53.097195 -144.05708 53.097195 -144.33661 curveto
53.097195 -145.04921 53.31767 -145.75984 53.758614 -146.4685 curveto
53.475147 -146.4685 lineto
closepath
54.282726 -145.51181 moveto
54.282726 -142.26378 lineto
56.627216 -142.26378 lineto
56.627216 -142.64764 lineto
54.71383 -142.64764 lineto
54.71383 -143.63977 lineto
56.509106 -143.63977 lineto
56.509106 -144.02362 lineto
54.71383 -144.02362 lineto
54.71383 -145.12796 lineto
56.703987 -145.12796 lineto
56.703987 -145.51181 lineto
54.282726 -145.51181 lineto
closepath
57.319637 -145.51181 moveto
57.319637 -142.26378 lineto
59.510582 -142.26378 lineto
59.510582 -142.64764 lineto
57.75074 -142.64764 lineto
57.75074 -143.65158 lineto
59.27436 -143.65158 lineto
59.27436 -144.03543 lineto
57.75074 -144.03543 lineto
57.75074 -145.51181 lineto
57.319637 -145.51181 lineto
closepath
61.590057 -144.23622 moveto
61.590057 -143.85826 lineto
62.960136 -143.85236 lineto
62.960136 -145.05708 lineto
62.751476 -145.22638 62.53494 -145.35335 62.31053 -145.43799 curveto
62.086124 -145.52263 61.85581 -145.56496 61.619587 -145.56496 curveto
61.30069 -145.56496 61.010334 -145.49704 60.748524 -145.36122 curveto
60.486713 -145.2254 60.289864 -145.02855 60.157974 -144.77068 curveto
60.02608 -144.5128 59.960136 -144.22441 59.960136 -143.90552 curveto
59.960136 -143.58662 60.02608 -143.29036 60.157974 -143.01674 curveto
60.289864 -142.7431 60.479824 -142.54034 60.727856 -142.40846 curveto
60.975887 -142.27658 61.26132 -142.21063 61.584152 -142.21063 curveto
61.820374 -142.21063 62.032974 -142.24803 62.22195 -142.32283 curveto
62.410927 -142.39764 62.559547 -142.50296 62.667816 -142.63878 curveto
62.77608 -142.7746 62.857777 -142.95276 62.912895 -143.17323 curveto
62.529034 -143.27953 lineto
62.47785 -143.11417 62.415844 -142.98425 62.34301 -142.88977 curveto
62.270176 -142.79527 62.166832 -142.71948 62.032974 -142.6624 curveto
61.899113 -142.60532 61.751476 -142.57677 61.590057 -142.57677 curveto
61.393208 -142.57677 61.222935 -142.6063 61.07923 -142.66536 curveto
60.93553 -142.72441 60.81939 -142.80315 60.73081 -142.90158 curveto
60.642227 -143.0 60.57431 -143.10826 60.527065 -143.22638 curveto
60.44439 -143.42717 60.40305 -143.6437 60.40305 -143.87599 curveto
60.40305 -144.16733 60.453247 -144.41043 60.553642 -144.60532 curveto
60.654034 -144.8002 60.79872 -144.94489 60.987698 -145.03937 curveto
61.176674 -145.13387 61.37943 -145.1811 61.595966 -145.1811 curveto
61.781006 -145.1811 61.962105 -145.14468 62.13927 -145.07185 curveto
62.316437 -144.99902 62.450294 -144.92323 62.540848 -144.84448 curveto
62.540848 -144.23622 lineto
61.590057 -144.23622 lineto
closepath
63.80684 -146.4685 moveto
63.523376 -146.4685 lineto
63.96432 -145.75984 64.18479 -145.04921 64.18479 -144.33661 curveto
64.18479 -144.06102 64.1533 -143.78543 64.0903 -143.50984 curveto
64.03912 -143.28937 63.968258 -143.07677 63.87771 -142.87204 curveto
63.818653 -142.74213 63.700542 -142.52165 63.523376 -142.21063 curveto
63.80684 -142.21063 lineto
64.082436 -142.5807 64.287155 -142.95276 64.42101 -143.32677 curveto
64.53519 -143.6496 64.59227 -143.98622 64.59227 -144.33661 curveto
64.59227 -144.73425 64.5155 -145.1191 64.36196 -145.49113 curveto
64.20842 -145.86319 64.02338 -146.18898 63.80684 -146.4685 curveto
closepath
68.41388 -143.60432 moveto
66.27018 -143.60432 lineto
66.27018 -143.23228 lineto
68.41388 -143.23228 lineto
68.41388 -143.60432 lineto
closepath
68.41388 -144.59055 moveto
66.27018 -144.59055 lineto
66.27018 -144.2185 lineto
68.41388 -144.2185 lineto
68.41388 -144.59055 lineto
closepath
71.38952 -145.51181 moveto
71.38952 -144.73228 lineto
69.98401 -144.73228 lineto
69.98401 -144.36613 lineto
71.466286 -142.26378 lineto
71.79109 -142.26378 lineto
71.79109 -144.36613 lineto
72.2281 -144.36613 lineto
72.2281 -144.73228 lineto
71.79109 -144.73228 lineto
71.79109 -145.51181 lineto
71.38952 -145.51181 lineto
closepath
71.38952 -144.36613 moveto
71.38952 -142.90749 lineto
70.37377 -144.36613 lineto
71.38952 -144.36613 lineto
closepath
73.250496 -143.75197 moveto
73.085144 -143.68898 72.96211 -143.60138 72.8814 -143.48917 curveto
72.80069 -143.37697 72.76034 -143.2441 72.76034 -143.09055 curveto
72.76034 -142.85432 72.84597 -142.65552 73.01723 -142.4941 curveto
73.188484 -142.33267 73.41388 -142.25197 73.693405 -142.25197 curveto
73.97687 -142.25197 74.205215 -142.33464 74.37845 -142.5 curveto
74.551674 -142.66536 74.63829 -142.86613 74.63829 -143.10236 curveto
74.63829 -143.25197 74.59892 -143.38188 74.52018 -143.49213 curveto
74.44144 -143.60237 74.32136 -143.68898 74.15994 -143.75197 curveto
74.360725 -143.81496 74.5123 -143.91928 74.61466 -144.06496 curveto
74.717026 -144.21063 74.76821 -144.38385 74.76821 -144.58464 curveto
74.76821 -144.86023 74.67077 -145.09251 74.47588 -145.2815 curveto
74.281006 -145.47047 74.02215 -145.56496 73.69931 -145.56496 curveto
73.38041 -145.56496 73.122536 -145.47047 72.92569 -145.2815 curveto
72.72884 -145.09251 72.63042 -144.8563 72.63042 -144.57283 curveto
72.63042 -144.36023 72.68455 -144.18307 72.792816 -144.04134 curveto
72.901085 -143.8996 73.05364 -143.80315 73.250496 -143.75197 curveto
closepath
73.167816 -143.07283 moveto
73.167816 -143.22638 73.21801 -143.35236 73.318405 -143.45079 curveto
73.4188 -143.54921 73.54774 -143.59842 73.705215 -143.59842 curveto
73.85876 -143.59842 73.98474 -143.55019 74.08317 -143.45374 curveto
74.181595 -143.35728 74.230804 -143.23819 74.230804 -143.09645 curveto
74.230804 -142.95079 74.17963 -142.82776 74.07726 -142.72736 curveto
73.9749 -142.62697 73.848915 -142.57677 73.69931 -142.57677 curveto
73.54577 -142.57677 73.4188 -142.62598 73.318405 -142.72441 curveto
73.21801 -142.82283 73.167816 -142.93896 73.167816 -143.07283 curveto
closepath
73.0438 -144.57283 moveto
73.0438 -144.68701 73.07037 -144.79724 73.12352 -144.90355 curveto
73.176674 -145.00984 73.25639 -145.09251 73.36269 -145.15158 curveto
73.468994 -145.21063 73.58317 -145.24016 73.705215 -145.24016 curveto
73.89419 -145.24016 74.05069 -145.17914 74.174706 -145.05708 curveto
74.29872 -144.93503 74.360725 -144.77953 74.360725 -144.59055 curveto
74.360725 -144.39763 74.29774 -144.23819 74.17175 -144.1122 curveto
74.04577 -143.98622 73.886314 -143.92323 73.693405 -143.92323 curveto
73.50443 -143.92323 73.348915 -143.98524 73.22687 -144.10925 curveto
73.10482 -144.23326 73.0438 -144.38779 73.0438 -144.57283 curveto
closepath
76.80635 -144.64961 moveto
77.19611 -144.70276 lineto
77.1528 -144.97047 77.042564 -145.18109 76.8654 -145.33464 curveto
76.68824 -145.48819 76.4717 -145.56496 76.2158 -145.56496 curveto
75.89296 -145.56496 75.6341 -145.45964 75.439224 -145.24901 curveto
75.24434 -145.03839 75.1469 -144.73622 75.1469 -144.34251 curveto
75.1469 -144.09055 75.18922 -143.8691 75.273865 -143.67815 curveto
75.35851 -143.48721 75.486465 -143.3445 75.65773 -143.25 curveto
75.82899 -143.1555 76.01698 -143.10826 76.2217 -143.10826 curveto
76.47367 -143.10826 76.68135 -143.17224 76.844734 -143.3002 curveto
77.00812 -143.42815 77.113434 -143.6122 77.16068 -143.85236 curveto
76.77091 -143.91142 lineto
76.73548 -143.75394 76.670525 -143.63484 76.576035 -143.55414 curveto
76.481544 -143.47343 76.36737 -143.43307 76.23351 -143.43307 curveto
76.03273 -143.43307 75.86934 -143.50493 75.743355 -143.64862 curveto
75.61737 -143.79231 75.55438 -144.01968 75.55438 -144.3307 curveto
75.55438 -144.6496 75.6154 -144.87991 75.73745 -145.02165 curveto
75.8595 -145.16339 76.01698 -145.23425 76.20989 -145.23425 curveto
76.36737 -145.23425 76.498276 -145.18701 76.60261 -145.09251 curveto
76.70694 -144.99803 76.77485 -144.8504 76.80635 -144.64961 curveto
closepath
77.538635 -145.51181 moveto
77.538635 -143.16142 lineto
77.89296 -143.16142 lineto
77.89296 -143.49213 lineto
77.967766 -143.37401 78.06619 -143.2805 78.18824 -143.21161 curveto
78.31029 -143.14272 78.45005 -143.10826 78.60753 -143.10826 curveto
78.780754 -143.10826 78.92348 -143.14369 79.03568 -143.21457 curveto
79.14789 -143.28543 79.22564 -143.38582 79.26894 -143.51575 curveto
79.457924 -143.2441 79.70005 -143.10826 79.99532 -143.10826 curveto
80.231544 -143.10826 80.41167 -143.17224 80.53568 -143.3002 curveto
80.6597 -143.42815 80.7217 -143.62796 80.7217 -143.89961 curveto
80.7217 -145.51181 lineto
80.326035 -145.51181 lineto
80.326035 -144.02953 lineto
80.326035 -143.87204 80.31324 -143.75787 80.28765 -143.68701 curveto
80.262054 -143.61613 80.2158 -143.55905 80.148865 -143.51575 curveto
80.08194 -143.47244 80.001236 -143.45079 79.906746 -143.45079 curveto
79.741394 -143.45079 79.604576 -143.5059 79.49631 -143.61613 curveto
79.38804 -143.72638 79.33391 -143.90355 79.33391 -144.14764 curveto
79.33391 -145.51181 lineto
78.932335 -145.51181 lineto
78.932335 -143.98228 lineto
78.932335 -143.80511 78.89986 -143.67224 78.83489 -143.58366 curveto
78.76993 -143.49509 78.66461 -143.45079 78.51894 -143.45079 curveto
78.40477 -143.45079 78.300446 -143.48032 78.205956 -143.53937 curveto
78.111465 -143.59843 78.04257 -143.68504 77.99926 -143.79921 curveto
77.955956 -143.91339 77.9343 -144.07677 77.9343 -144.28937 curveto
77.9343 -145.51181 lineto
77.538635 -145.51181 lineto
closepath
81.06865 -143.8878 moveto
81.08046 -143.80511 81.11589 -143.72047 81.17495 -143.63387 curveto
81.26944 -143.50787 81.42298 -143.36812 81.63558 -143.21457 curveto
81.848175 -143.06102 81.97416 -142.96063 82.013535 -142.91339 curveto
82.06866 -142.85432 82.096214 -142.7933 82.096214 -142.73032 curveto
82.096214 -142.65944 82.06964 -142.60138 82.01649 -142.5561 curveto
81.96333 -142.51083 81.88755 -142.48819 81.78912 -142.48819 curveto
81.6907 -142.48819 81.61787 -142.50493 81.57062 -142.53839 curveto
81.52338 -142.57185 81.48401 -142.63779 81.45251 -142.73622 curveto
81.1159 -142.70079 lineto
81.1592 -142.53937 81.234 -142.4193 81.3403 -142.34055 curveto
81.4466 -142.26181 81.59818 -142.22244 81.79503 -142.22244 curveto
82.01944 -142.22244 82.18381 -142.26674 82.28814 -142.35532 curveto
82.39247 -142.4439 82.44463 -142.55118 82.44463 -142.67717 curveto
82.44463 -142.79921 82.39936 -142.91534 82.30881 -143.02559 curveto
82.24581 -143.10828 82.09621 -143.23425 81.85999 -143.40355 curveto
81.73401 -143.4941 81.645424 -143.56693 81.594246 -143.62204 curveto
82.45054 -143.62204 lineto
82.45054 -143.8878 lineto
81.06865 -143.8878 lineto
closepath
fill
newpath
0.0 0.0 0.0 setrgbcolor
newpath
150.35065 -97.51181 moveto
149.95497 -97.51181 lineto
149.95497 -94.97244 lineto
149.85654 -95.062996 149.72957 -95.154526 149.57407 -95.24705 curveto
149.41855 -95.33957 149.27977 -95.40748 149.15773 -95.45079 curveto
149.15773 -95.06693 lineto
149.3782 -94.96063 149.5721 -94.83366 149.73943 -94.68602 curveto
149.90674 -94.53838 150.02583 -94.3937 150.09671 -94.25197 curveto
150.35065 -94.25197 lineto
150.35065 -97.51181 lineto
closepath
151.37303 -95.911415 moveto
151.37303 -95.52559 151.4124 -95.21555 151.49113 -94.9813 curveto
151.56989 -94.74705 151.68701 -94.56693 151.84251 -94.44095 curveto
151.99803 -94.314964 152.1939 -94.25197 152.43011 -94.25197 curveto
152.60335 -94.25197 152.7559 -94.2874 152.8878 -94.35827 curveto
153.01968 -94.42914 153.12894 -94.53051 153.21555 -94.6624 curveto
153.30217 -94.79429 153.3691 -94.95473 153.41634 -95.1437 curveto
153.46358 -95.33267 153.4872 -95.58858 153.4872 -95.911415 curveto
153.4872 -96.293304 153.4488 -96.600395 153.37204 -96.83268 curveto
153.29527 -97.06496 153.17914 -97.24508 153.02362 -97.37303 curveto
152.86812 -97.500984 152.67027 -97.564964 152.43011 -97.564964 curveto
152.1191 -97.564964 151.87303 -97.45276 151.69193 -97.22835 curveto
151.47932 -96.96063 151.37303 -96.52165 151.37303 -95.911415 curveto
closepath
151.78052 -95.911415 moveto
151.78052 -96.44292 151.8435 -96.79725 151.96948 -96.97441 curveto
152.09547 -97.15157 152.24901 -97.24016 152.43011 -97.24016 curveto
152.61516 -97.24016 152.76968 -97.15157 152.8937 -96.97441 curveto
153.01772 -96.79725 153.07973 -96.44292 153.07973 -95.911415 curveto
153.07973 -95.375984 153.01772 -95.02067 152.8937 -94.845474 curveto
152.76968 -94.67028 152.61319 -94.58268 152.42421 -94.58268 curveto
152.2431 -94.58268 152.09744 -94.659454 151.9872 -94.812996 curveto
151.84941 -95.00984 151.78052 -95.375984 151.78052 -95.911415 curveto
closepath
156.80315 -96.649605 moveto
157.19292 -96.70276 lineto
157.14961 -96.970474 157.03937 -97.18111 156.8622 -97.33465 curveto
156.68503 -97.48819 156.4685 -97.564964 156.2126 -97.564964 curveto
155.88977 -97.564964 155.6309 -97.45965 155.43602 -97.249016 curveto
155.24115 -97.03838 155.1437 -96.73622 155.1437 -96.34252 curveto
155.1437 -96.09055 155.18604 -95.869095 155.27068 -95.67815 curveto
155.35532 -95.487206 155.48328 -95.34449 155.65453 -95.25 curveto
155.82579 -95.15551 156.01378 -95.10827 156.2185 -95.10827 curveto
156.47047 -95.10827 156.67815 -95.17224 156.84154 -95.30019 curveto
157.00491 -95.42815 157.11023 -95.612206 157.15749 -95.85236 curveto
156.76772 -95.911415 lineto
156.73228 -95.75394 156.66733 -95.63484 156.57283 -95.55413 curveto
156.47835 -95.47342 156.36418 -95.43307 156.23032 -95.43307 curveto
156.02953 -95.43307 155.86615 -95.50492 155.74016 -95.64862 curveto
155.61417 -95.79232 155.55118 -96.019684 155.55118 -96.33071 curveto
155.55118 -96.649605 155.6122 -96.87992 155.73425 -97.02165 curveto
155.85631 -97.16338 156.01378 -97.23425 156.2067 -97.23425 curveto
156.36418 -97.23425 156.49509 -97.18701 156.59941 -97.09252 curveto
156.70374 -96.99803 156.77165 -96.850395 156.80315 -96.649605 curveto
closepath
157.53543 -97.51181 moveto
157.53543 -95.161415 lineto
157.88977 -95.161415 lineto
157.88977 -95.49213 lineto
157.96457 -95.374016 158.06299 -95.28052 158.18504 -95.21162 curveto
158.30708 -95.142715 158.44684 -95.10827 158.60432 -95.10827 curveto
158.77756 -95.10827 158.92027 -95.1437 159.03249 -95.21457 curveto
159.14468 -95.28544 159.22244 -95.385826 159.26575 -95.51575 curveto
159.45473 -95.244095 159.69685 -95.10827 159.99213 -95.10827 curveto
160.22835 -95.10827 160.40846 -95.17224 160.53249 -95.30019 curveto
160.6565 -95.42815 160.7185 -95.62795 160.7185 -95.899605 curveto
160.7185 -97.51181 lineto
160.32283 -97.51181 lineto
160.32283 -96.029526 lineto
160.32283 -95.87205 160.31004 -95.75787 160.28445 -95.687004 curveto
160.25887 -95.61614 160.2126 -95.55906 160.14568 -95.51575 curveto
160.07874 -95.47244 159.99803 -95.45079 159.90355 -95.45079 curveto
159.73819 -95.45079 159.60138 -95.505905 159.4931 -95.61614 curveto
159.38484 -95.72638 159.3307 -95.90354 159.3307 -96.14764 curveto
159.3307 -97.51181 lineto
158.92914 -97.51181 lineto
158.92914 -95.982285 lineto
158.92914 -95.80512 158.89665 -95.67225 158.8317 -95.583664 curveto
158.76674 -95.49508 158.66142 -95.45079 158.51575 -95.45079 curveto
158.40157 -95.45079 158.29724 -95.480316 158.20276 -95.53937 curveto
158.10826 -95.59843 158.03937 -95.685036 157.99606 -95.79921 curveto
157.95276 -95.91338 157.9311 -96.076775 157.9311 -96.28937 curveto
157.9311 -97.51181 lineto
157.53543 -97.51181 lineto
closepath
fill
newpath
0.0 0.0 0.0 setrgbcolor
newpath
47.04331 -97.13386 moveto
46.647636 -97.13386 lineto
46.647636 -94.59449 lineto
46.549213 -94.68504 46.422245 -94.77657 46.26673 -94.869095 curveto
46.11122 -94.96162 45.972443 -95.029526 45.850395 -95.07284 curveto
45.850395 -94.68898 lineto
46.070866 -94.58268 46.264763 -94.4557 46.432087 -94.30807 curveto
46.59941 -94.16043 46.718506 -94.01575 46.78937 -93.874016 curveto
47.04331 -93.874016 lineto
47.04331 -97.13386 lineto
closepath
48.0657 -95.53346 moveto
48.0657 -95.14764 48.10507 -94.8376 48.183807 -94.60335 curveto
48.262547 -94.369095 48.379673 -94.18898 48.535187 -94.062996 curveto
48.6907 -93.93701 48.886566 -93.874016 49.122784 -93.874016 curveto
49.296013 -93.874016 49.448574 -93.90945 49.580463 -93.980316 curveto
49.712353 -94.051186 49.821606 -94.15256 49.90822 -94.28445 curveto
49.99483 -94.416336 50.06176 -94.576775 50.109005 -94.76575 curveto
50.15625 -94.95472 50.17987 -95.210625 50.17987 -95.53346 curveto
50.17987 -95.91535 50.141487 -96.22244 50.064716 -96.45473 curveto
49.987946 -96.687004 49.871803 -96.86713 49.71629 -96.99508 curveto
49.560776 -97.12303 49.36294 -97.187004 49.122784 -97.187004 curveto
48.81176 -97.187004 48.5657 -97.0748 48.384598 -96.850395 curveto
48.172 -96.58268 48.0657 -96.1437 48.0657 -95.53346 curveto
closepath
48.47318 -95.53346 moveto
48.47318 -96.064964 48.53617 -96.4193 48.662155 -96.59646 curveto
48.78814 -96.77362 48.94168 -96.862206 49.122784 -96.862206 curveto
49.307823 -96.862206 49.462353 -96.77362 49.58637 -96.59646 curveto
49.710384 -96.4193 49.772392 -96.064964 49.772392 -95.53346 curveto
49.772392 -94.99803 49.710384 -94.642715 49.58637 -94.46752 curveto
49.462353 -94.29233 49.305855 -94.20473 49.11688 -94.20473 curveto
48.935776 -94.20473 48.790108 -94.281494 48.67987 -94.435036 curveto
48.542076 -94.63189 48.47318 -94.99803 48.47318 -95.53346 curveto
closepath
53.495815 -96.27165 moveto
53.885582 -96.32481 lineto
53.842274 -96.59252 53.732037 -96.803154 53.55487 -96.956696 curveto
53.377705 -97.11024 53.16117 -97.187004 52.905266 -97.187004 curveto
52.58243 -97.187004 52.323574 -97.08169 52.128693 -96.87106 curveto
51.93381 -96.66043 51.83637 -96.35827 51.83637 -95.96457 curveto
51.83637 -95.7126 51.878693 -95.49114 51.963337 -95.30019 curveto
52.04798 -95.10925 52.175934 -94.96654 52.347195 -94.87205 curveto
52.518456 -94.77756 52.706448 -94.730316 52.91117 -94.730316 curveto
53.16314 -94.730316 53.370815 -94.79429 53.534203 -94.92224 curveto
53.69759 -95.05019 53.802902 -95.23425 53.850147 -95.47441 curveto
53.460384 -95.53346 lineto
53.42495 -95.375984 53.35999 -95.25689 53.265503 -95.17618 curveto
53.171013 -95.09547 53.05684 -95.055115 52.92298 -95.055115 curveto
52.722195 -95.055115 52.558807 -95.12697 52.432823 -95.27067 curveto
52.30684 -95.41437 52.243847 -95.64173 52.243847 -95.95276 curveto
52.243847 -96.27165 52.30487 -96.50197 52.426918 -96.6437 curveto
52.548965 -96.78543 52.706448 -96.8563 52.89936 -96.8563 curveto
53.056843 -96.8563 53.187748 -96.80906 53.292076 -96.71457 curveto
53.396408 -96.62008 53.46432 -96.47244 53.495815 -96.27165 curveto
closepath
54.2281 -97.13386 moveto
54.2281 -94.78346 lineto
54.58243 -94.78346 lineto
54.58243 -95.114174 lineto
54.657234 -94.99606 54.75566 -94.90256 54.87771 -94.833664 curveto
54.999752 -94.76476 55.139515 -94.730316 55.296997 -94.730316 curveto
55.470226 -94.730316 55.61294 -94.76575 55.725147 -94.83662 curveto
55.837353 -94.907486 55.915108 -95.00787 55.958416 -95.137794 curveto
56.147392 -94.86614 56.389515 -94.730316 56.68479 -94.730316 curveto
56.921013 -94.730316 57.10113 -94.79429 57.225147 -94.92224 curveto
57.349163 -95.05019 57.41117 -95.25 57.41117 -95.52165 curveto
57.41117 -97.13386 lineto
57.015503 -97.13386 lineto
57.015503 -95.65157 lineto
57.015503 -95.494095 57.00271 -95.37992 56.977116 -95.30905 curveto
56.951527 -95.23819 56.905266 -95.18111 56.838337 -95.137794 curveto
56.771408 -95.09449 56.690697 -95.07284 56.59621 -95.07284 curveto
56.430855 -95.07284 56.294044 -95.12795 56.185776 -95.23819 curveto
56.07751 -95.34843 56.023376 -95.52559 56.023376 -95.769684 curveto
56.023376 -97.13386 lineto
55.6218 -97.13386 lineto
55.6218 -95.60433 lineto
55.6218 -95.42717 55.58932 -95.2943 55.52436 -95.20571 curveto
55.4594 -95.11713 55.354084 -95.07284 55.208416 -95.07284 curveto
55.094242 -95.07284 54.98991 -95.10236 54.895424 -95.161415 curveto
54.800938 -95.220474 54.73204 -95.30708 54.688732 -95.42126 curveto
54.645424 -95.53543 54.623768 -95.69882 54.623768 -95.911415 curveto
54.623768 -97.13386 lineto
54.2281 -97.13386 lineto
closepath
fill
newpath
0.0 0.0 0.0 setrgbcolor
newpath
105.75 -104.69292 moveto
105.75 -101.444885 lineto
106.14567 -101.444885 lineto
106.14567 -102.60827 lineto
106.3307 -102.39567 106.56496 -102.28937 106.84843 -102.28937 curveto
107.02559 -102.28937 107.17815 -102.323814 107.3061 -102.392715 curveto
107.43405 -102.46162 107.52559 -102.5561 107.58071 -102.67618 curveto
107.635826 -102.79626 107.66338 -102.97244 107.66338 -103.20473 curveto
107.66338 -104.69292 lineto
107.267715 -104.69292 lineto
107.267715 -103.20473 lineto
107.267715 -103.00394 107.22441 -102.85827 107.137794 -102.767715 curveto
107.05118 -102.67716 106.92913 -102.63189 106.77165 -102.63189 curveto
106.65354 -102.63189 106.54233 -102.6624 106.437996 -102.72343 curveto
106.333664 -102.784454 106.25886 -102.86713 106.213585 -102.97146 curveto
106.168304 -103.07579 106.14567 -103.220474 106.14567 -103.40551 curveto
106.14567 -104.69292 lineto
105.75 -104.69292 lineto
closepath
111.62894 -102.78543 moveto
109.48524 -102.78543 lineto
109.48524 -102.41338 lineto
111.62894 -102.41338 lineto
111.62894 -102.78543 lineto
closepath
111.62894 -103.77165 moveto
109.48524 -103.77165 lineto
109.48524 -103.399605 lineto
111.62894 -103.399605 lineto
111.62894 -103.77165 lineto
closepath
113.94316 -102.93307 moveto
113.77781 -102.87008 113.65478 -102.78248 113.574066 -102.67027 curveto
113.493355 -102.55807 113.453 -102.42519 113.453 -102.27165 curveto
113.453 -102.03543 113.538635 -101.83661 113.70989 -101.67519 curveto
113.88115 -101.51378 114.106544 -101.43307 114.38607 -101.43307 curveto
114.66954 -101.43307 114.89789 -101.51575 115.07111 -101.6811 curveto
115.24434 -101.84645 115.330956 -102.04724 115.330956 -102.28346 curveto
115.330956 -102.43307 115.29159 -102.56299 115.212845 -102.673225 curveto
115.1341 -102.78346 115.01402 -102.87008 114.85261 -102.93307 curveto
115.05339 -102.99606 115.20497 -103.100395 115.307335 -103.24606 curveto
115.4097 -103.39173 115.46088 -103.564964 115.46088 -103.76575 curveto
115.46088 -104.041336 115.363434 -104.27362 115.16856 -104.4626 curveto
114.97367 -104.65157 114.71481 -104.74606 114.391975 -104.74606 curveto
114.07308 -104.74606 113.81521 -104.65157 113.618355 -104.4626 curveto
113.42151 -104.27362 113.32308 -104.0374 113.32308 -103.75394 curveto
113.32308 -103.541336 113.37721 -103.364174 113.48548 -103.22244 curveto
113.59375 -103.08071 113.74631 -102.98425 113.94316 -102.93307 curveto
closepath
113.86048 -102.25394 moveto
113.86048 -102.40748 113.910675 -102.53346 114.01107 -102.63189 curveto
114.111465 -102.730316 114.2404 -102.779526 114.39788 -102.779526 curveto
114.55142 -102.779526 114.67741 -102.7313 114.77583 -102.63484 curveto
114.87426 -102.53838 114.92348 -102.41929 114.92348 -102.27756 curveto
114.92348 -102.13189 114.87229 -102.00886 114.76993 -101.90846 curveto
114.667564 -101.80807 114.54158 -101.75787 114.391975 -101.75787 curveto
114.238434 -101.75787 114.111465 -101.80708 114.01107 -101.90551 curveto
113.910675 -102.00394 113.86048 -102.12008 113.86048 -102.25394 curveto
closepath
113.736465 -103.75394 moveto
113.736465 -103.86811 113.76304 -103.97835 113.81619 -104.08465 curveto
113.86934 -104.19095 113.949066 -104.27362 114.05537 -104.33268 curveto
114.16167 -104.39173 114.27583 -104.42126 114.39788 -104.42126 curveto
114.58686 -104.42126 114.743355 -104.36024 114.86737 -104.23819 curveto
114.99139 -104.11614 115.0534 -103.960625 115.0534 -103.77165 curveto
115.0534 -103.57874 114.9904 -103.41929 114.86442 -103.293304 curveto
114.738434 -103.16732 114.57899 -103.10433 114.38607 -103.10433 curveto
114.1971 -103.10433 114.04159 -103.166336 113.91954 -103.29035 curveto
113.79749 -103.41437 113.736465 -103.5689 113.736465 -103.75394 curveto
closepath
117.499016 -103.83071 moveto
117.88878 -103.88386 lineto
117.845474 -104.15157 117.73524 -104.362206 117.55807 -104.51575 curveto
117.380905 -104.66929 117.16437 -104.74606 116.90846 -104.74606 curveto
116.585625 -104.74606 116.32677 -104.64075 116.13189 -104.430115 curveto
115.93701 -104.21949 115.83957 -103.91732 115.83957 -103.52362 curveto
115.83957 -103.27165 115.88189 -103.05019 115.96654 -102.85925 curveto
116.051186 -102.66831 116.17914 -102.52559 116.350395 -102.4311 curveto
116.52165 -102.33661 116.70965 -102.28937 116.91437 -102.28937 curveto
117.166336 -102.28937 117.374016 -102.35335 117.5374 -102.4813 curveto
117.70078 -102.60925 117.8061 -102.793304 117.85335 -103.03346 curveto
117.463585 -103.09252 lineto
117.42815 -102.93504 117.36319 -102.81595 117.2687 -102.73524 curveto
117.17421 -102.654526 117.060036 -102.614174 116.92618 -102.614174 curveto
116.725395 -102.614174 116.562004 -102.68603 116.43602 -102.82973 curveto
116.310036 -102.97343 116.24705 -103.20078 116.24705 -103.51181 curveto
116.24705 -103.83071 116.30807 -104.06103 116.430115 -104.20276 curveto
116.55216 -104.34449 116.70965 -104.41535 116.90256 -104.41535 curveto
117.060036 -104.41535 117.19094 -104.36811 117.29527 -104.27362 curveto
117.399605 -104.17913 117.46752 -104.031494 117.499016 -103.83071 curveto
closepath
118.2313 -104.69292 moveto
118.2313 -102.34252 lineto
118.58563 -102.34252 lineto
118.58563 -102.673225 lineto
118.66044 -102.555115 118.75886 -102.46162 118.880905 -102.392715 curveto
119.00295 -102.323814 119.142715 -102.28937 119.30019 -102.28937 curveto
119.47342 -102.28937 119.61614 -102.3248 119.72835 -102.39567 curveto
119.84055 -102.46654 119.918304 -102.56693 119.96162 -102.69685 curveto
120.15059 -102.42519 120.392715 -102.28937 120.687996 -102.28937 curveto
120.92421 -102.28937 121.10433 -102.35335 121.22835 -102.4813 curveto
121.35236 -102.60925 121.41437 -102.80905 121.41437 -103.08071 curveto
121.41437 -104.69292 lineto
121.0187 -104.69292 lineto
121.0187 -103.21063 lineto
121.0187 -103.053154 121.005905 -102.93898 120.980316 -102.86811 curveto
120.95473 -102.79724 120.90847 -102.74016 120.84154 -102.69685 curveto
120.774605 -102.65354 120.6939 -102.63189 120.59941 -102.63189 curveto
120.43406 -102.63189 120.29725 -102.687004 120.18898 -102.79724 curveto
120.08071 -102.90748 120.02657 -103.08465 120.02657 -103.32874 curveto
120.02657 -104.69292 lineto
119.625 -104.69292 lineto
119.625 -103.16338 lineto
119.625 -102.98622 119.59252 -102.85335 119.52756 -102.76476 curveto
119.46259 -102.67618 119.357285 -102.63189 119.21162 -102.63189 curveto
119.09744 -102.63189 118.99311 -102.661415 118.89862 -102.720474 curveto
118.80413 -102.779526 118.73524 -102.86614 118.69193 -102.980316 curveto
118.64862 -103.09449 118.62697 -103.25787 118.62697 -103.470474 curveto
118.62697 -104.69292 lineto
118.2313 -104.69292 lineto
closepath
fill
newpath
grestore
grestore
showpage

%%EOF