%!PS-Adobe-3.0 EPSF-3.0
%%Creator: EpsGraphics2D 0.9.0 by Paul Mutton, http://www.jibble.org/
%%Title: GeoGebra, http://www.geogebra.at
%%CreationDate: Sun Dec 11 15:53:29 CET 2005
%%BoundingBox: 0 0 291 187
%%DocumentData: Clean7Bit
%%DocumentProcessColors: Black
%%ColorUsage: Color
%%Origin: 0 0
%%Pages: 1
%%Page: 1 1
%%EndComments

gsave
-0.0 187.0 translate
1.0 setlinewidth
10.0 setmiterlimit
0 setlinejoin
2 setlinecap
[ ] 0 setdash
gsave
newpath
0.0 -0.0 moveto
291.77954 -0.0 lineto
291.77954 -187.08661 lineto
0.0 -187.08661 lineto
0.0 -0.0 lineto
closepath
clip
newpath
1.0 1.0 1.0 setrgbcolor
newpath
0.0 -0.0 moveto
291.77954 -0.0 lineto
291.77954 -187.08661 lineto
0.0 -187.08661 lineto
0.0 -0.0 lineto
closepath
fill
newpath
0.0 0.0 0.0 setrgbcolor
1.0 setlinewidth
10.0 setmiterlimit
1 setlinejoin
0 setlinecap
[ 1.0 3.0 ] 0 setdash
newpath
0.0 -157.51181 moveto
291.77954 -157.51181 lineto
stroke
newpath
0.0 0.0 0.0 setrgbcolor
1.0 setlinewidth
10.0 setmiterlimit
1 setlinejoin
0 setlinecap
[ 1.0 3.0 ] 0 setdash
newpath
144.94489 -15.779528 moveto
144.94489 -157.51181 lineto
stroke
newpath
0.0 0.0 0.0 setrgbcolor
0.5 setlinewidth
10.0 setmiterlimit
1 setlinejoin
1 setlinecap
[ ] 0 setdash
newpath
144.94489 -114.99213 moveto
9.7409 -157.51181 lineto
stroke
newpath
0.0 0.0 0.0 setrgbcolor
0.5 setlinewidth
10.0 setmiterlimit
1 setlinejoin
1 setlinecap
[ ] 0 setdash
newpath
144.94489 -114.99213 moveto
280.14886 -157.51181 lineto
stroke
newpath
0.0 0.0 1.0 setrgbcolor
newpath
146.07874 -15.779528 moveto
146.07874 -16.405739 145.57109 -16.913385 144.94489 -16.913385 curveto
144.31866 -16.913385 143.81102 -16.405739 143.81102 -15.779528 curveto
143.81102 -15.153316 144.31866 -14.645669 144.94489 -14.645669 curveto
145.57109 -14.645669 146.07874 -15.153316 146.07874 -15.779528 curveto
closepath
fill
newpath
0.0 0.0 0.0 setrgbcolor
1.0 setlinewidth
10.0 setmiterlimit
1 setlinejoin
1 setlinecap
[ ] 0 setdash
newpath
146.07874 -15.779528 moveto
146.07874 -16.405739 145.57109 -16.913385 144.94489 -16.913385 curveto
144.31866 -16.913385 143.81102 -16.405739 143.81102 -15.779528 curveto
143.81102 -15.153316 144.31866 -14.645669 144.94489 -14.645669 curveto
145.57109 -14.645669 146.07874 -15.153316 146.07874 -15.779528 curveto
closepath
stroke
newpath
0.49019608 0.49019608 1.0 setrgbcolor
newpath
146.07874 -157.51181 moveto
146.07874 -158.13803 145.57109 -158.64568 144.94489 -158.64568 curveto
144.31866 -158.64568 143.81102 -158.13803 143.81102 -157.51181 curveto
143.81102 -156.88559 144.31866 -156.37796 144.94489 -156.37796 curveto
145.57109 -156.37796 146.07874 -156.88559 146.07874 -157.51181 curveto
closepath
fill
newpath
0.0 0.0 0.0 setrgbcolor
1.0 setlinewidth
10.0 setmiterlimit
1 setlinejoin
1 setlinecap
[ ] 0 setdash
newpath
146.07874 -157.51181 moveto
146.07874 -158.13803 145.57109 -158.64568 144.94489 -158.64568 curveto
144.31866 -158.64568 143.81102 -158.13803 143.81102 -157.51181 curveto
143.81102 -156.88559 144.31866 -156.37796 144.94489 -156.37796 curveto
145.57109 -156.37796 146.07874 -156.88559 146.07874 -157.51181 curveto
closepath
stroke
newpath
0.0 0.0 0.0 setrgbcolor
newpath
146.07874 -114.99213 moveto
146.07874 -115.61834 145.57109 -116.125984 144.94489 -116.125984 curveto
144.31866 -116.125984 143.81102 -115.61834 143.81102 -114.99213 curveto
143.81102 -114.36591 144.31866 -113.85827 144.94489 -113.85827 curveto
145.57109 -113.85827 146.07874 -114.36591 146.07874 -114.99213 curveto
closepath
fill
newpath
0.0 0.0 0.0 setrgbcolor
1.0 setlinewidth
10.0 setmiterlimit
1 setlinejoin
1 setlinecap
[ ] 0 setdash
newpath
146.07874 -114.99213 moveto
146.07874 -115.61834 145.57109 -116.125984 144.94489 -116.125984 curveto
144.31866 -116.125984 143.81102 -115.61834 143.81102 -114.99213 curveto
143.81102 -114.36591 144.31866 -113.85827 144.94489 -113.85827 curveto
145.57109 -113.85827 146.07874 -114.36591 146.07874 -114.99213 curveto
closepath
stroke
newpath
0.0 0.0 0.0 setrgbcolor
newpath
147.0059 -112.62992 moveto
147.0059 -109.38189 lineto
149.35039 -109.38189 lineto
149.35039 -109.76575 lineto
147.43701 -109.76575 lineto
147.43701 -110.75787 lineto
149.23228 -110.75787 lineto
149.23228 -111.14173 lineto
147.43701 -111.14173 lineto
147.43701 -112.24606 lineto
149.42717 -112.24606 lineto
149.42717 -112.62992 lineto
147.0059 -112.62992 lineto
closepath
fill
newpath
0.2509804 0.2509804 0.2509804 setrgbcolor
newpath
10.874759 -157.51181 moveto
10.874759 -158.13803 10.367113 -158.64568 9.7409 -158.64568 curveto
9.114688 -158.64568 8.607042 -158.13803 8.607042 -157.51181 curveto
8.607042 -156.88559 9.114688 -156.37796 9.7409 -156.37796 curveto
10.367113 -156.37796 10.874759 -156.88559 10.874759 -157.51181 curveto
closepath
fill
newpath
0.0 0.0 0.0 setrgbcolor
1.0 setlinewidth
10.0 setmiterlimit
1 setlinejoin
1 setlinecap
[ ] 0 setdash
newpath
10.874759 -157.51181 moveto
10.874759 -158.13803 10.367113 -158.64568 9.7409 -158.64568 curveto
9.114688 -158.64568 8.607042 -158.13803 8.607042 -157.51181 curveto
8.607042 -156.88559 9.114688 -156.37796 9.7409 -156.37796 curveto
10.367113 -156.37796 10.874759 -156.88559 10.874759 -157.51181 curveto
closepath
stroke
newpath
0.2509804 0.2509804 0.2509804 setrgbcolor
newpath
7.1751966 -154.96063 moveto
7.1751966 -151.7126 lineto
9.366141 -151.7126 lineto
9.366141 -152.09645 lineto
7.6062994 -152.09645 lineto
7.6062994 -153.10039 lineto
9.129921 -153.10039 lineto
9.129921 -153.48425 lineto
7.6062994 -153.48425 lineto
7.6062994 -154.96063 lineto
7.1751966 -154.96063 lineto
closepath
fill
newpath
0.2509804 0.2509804 0.2509804 setrgbcolor
newpath
281.2827 -157.51181 moveto
281.2827 -158.13803 280.77505 -158.64568 280.14886 -158.64568 curveto
279.52267 -158.64568 279.01498 -158.13803 279.01498 -157.51181 curveto
279.01498 -156.88559 279.52267 -156.37796 280.14886 -156.37796 curveto
280.77505 -156.37796 281.2827 -156.88559 281.2827 -157.51181 curveto
closepath
fill
newpath
0.0 0.0 0.0 setrgbcolor
1.0 setlinewidth
10.0 setmiterlimit
1 setlinejoin
1 setlinecap
[ ] 0 setdash
newpath
281.2827 -157.51181 moveto
281.2827 -158.13803 280.77505 -158.64568 280.14886 -158.64568 curveto
279.52267 -158.64568 279.01498 -158.13803 279.01498 -157.51181 curveto
279.01498 -156.88559 279.52267 -156.37796 280.14886 -156.37796 curveto
280.77505 -156.37796 281.2827 -156.88559 281.2827 -157.51181 curveto
closepath
stroke
newpath
0.2509804 0.2509804 0.2509804 setrgbcolor
newpath
283.44684 -154.06299 moveto
283.44684 -153.68504 lineto
284.81693 -153.67914 lineto
284.81693 -154.88387 lineto
284.60828 -155.05316 284.39172 -155.18013 284.16733 -155.26477 curveto
283.94293 -155.34941 283.71262 -155.39174 283.47638 -155.39174 curveto
283.15747 -155.39174 282.86713 -155.32382 282.60532 -155.18799 curveto
282.3435 -155.05217 282.14664 -154.85532 282.01477 -154.59744 curveto
281.88287 -154.33957 281.81693 -154.05118 281.81693 -153.73228 curveto
281.81693 -153.41339 281.88287 -153.11713 282.01477 -152.8435 curveto
282.14664 -152.56989 282.3366 -152.36713 282.58466 -152.23523 curveto
282.83267 -152.10335 283.1181 -152.0374 283.44095 -152.0374 curveto
283.6772 -152.0374 283.88977 -152.0748 284.07874 -152.14961 curveto
284.26773 -152.22441 284.41635 -152.32973 284.5246 -152.46555 curveto
284.63287 -152.60138 284.71457 -152.77953 284.76968 -153.0 curveto
284.38583 -153.1063 lineto
284.33466 -152.94093 284.27264 -152.81102 284.1998 -152.71654 curveto
284.12695 -152.62204 284.02362 -152.54625 283.88977 -152.48917 curveto
283.7559 -152.43208 283.60825 -152.40355 283.44684 -152.40355 curveto
283.25 -152.40355 283.07974 -152.43307 282.93604 -152.49213 curveto
282.79233 -152.55118 282.67618 -152.62991 282.5876 -152.72835 curveto
282.499 -152.82678 282.4311 -152.93504 282.38385 -153.05315 curveto
282.30118 -153.25394 282.25986 -153.47047 282.25986 -153.70276 curveto
282.25986 -153.9941 282.31006 -154.23721 282.41043 -154.43208 curveto
282.51083 -154.62697 282.65552 -154.77165 282.84448 -154.86613 curveto
283.03348 -154.96063 283.23624 -155.00787 283.45276 -155.00787 curveto
283.6378 -155.00787 283.8189 -154.97145 283.99606 -154.89862 curveto
284.17322 -154.82579 284.3071 -154.75 284.39764 -154.67126 curveto
284.39764 -154.06299 lineto
283.44684 -154.06299 lineto
closepath
fill
newpath
0.0 0.0 0.0 setrgbcolor
newpath
84.65551 -147.40158 moveto
85.90157 -144.15355 lineto
86.362206 -144.15355 lineto
87.69095 -147.40158 lineto
87.206696 -147.40158 lineto
86.82284 -146.41536 lineto
85.470474 -146.41536 lineto
85.11024 -147.40158 lineto
84.65551 -147.40158 lineto
closepath
85.59449 -146.06693 moveto
86.69292 -146.06693 lineto
86.3563 -145.1693 lineto
86.25 -144.89764 86.17323 -144.67323 86.125984 -144.49606 curveto
86.08267 -144.70473 86.02362 -144.9114 85.94882 -145.11613 curveto
85.59449 -146.06693 lineto
closepath
87.98769 -144.61417 moveto
87.98769 -144.15355 lineto
88.389275 -144.15355 lineto
88.389275 -144.61417 lineto
87.98769 -144.61417 lineto
closepath
87.98769 -147.40158 moveto
87.98769 -145.05118 lineto
88.389275 -145.05118 lineto
88.389275 -147.40158 lineto
87.98769 -147.40158 lineto
closepath
88.98942 -147.40158 moveto
88.98942 -145.05118 lineto
89.349655 -145.05118 lineto
89.349655 -145.40552 lineto
89.44021 -145.24016 89.523865 -145.1309 89.60064 -145.07776 curveto
89.677414 -145.02461 89.76304 -144.99803 89.85753 -144.99803 curveto
89.99139 -144.99803 90.12721 -145.03937 90.26501 -145.12204 curveto
90.12918 -145.4941 lineto
90.030754 -145.43504 89.9343 -145.40552 89.83981 -145.40552 curveto
89.74926 -145.40552 89.66954 -145.43208 89.60064 -145.48523 curveto
89.53174 -145.53838 89.48351 -145.6122 89.455956 -145.7067 curveto
89.40871 -145.84843 89.385086 -146.00197 89.385086 -146.16733 curveto
89.385086 -147.40158 lineto
88.98942 -147.40158 lineto
closepath
92.11196 -146.64568 moveto
92.525345 -146.69292 lineto
92.46235 -146.93307 92.34227 -147.12007 92.16511 -147.25394 curveto
91.987946 -147.3878 91.763535 -147.45473 91.49188 -147.45473 curveto
91.14936 -147.45473 90.876724 -147.34843 90.673965 -147.13583 curveto
90.471214 -146.92323 90.369835 -146.62598 90.369835 -146.2441 curveto
90.369835 -145.8504 90.4722 -145.5443 90.67692 -145.32579 curveto
90.881645 -145.10728 91.145424 -144.99803 91.468254 -144.99803 curveto
91.78322 -144.99803 92.04011 -145.10432 92.23893 -145.31693 curveto
92.437744 -145.52953 92.537155 -145.83072 92.537155 -146.22047 curveto
92.537155 -146.2441 92.537155 -146.27953 92.537155 -146.32677 curveto
90.78322 -146.32677 lineto
90.798965 -146.58661 90.8718 -146.78445 91.001724 -146.92027 curveto
91.131645 -147.05609 91.29503 -147.12401 91.49188 -147.12401 curveto
91.63755 -147.12401 91.76255 -147.08563 91.86688 -147.00887 curveto
91.971214 -146.9321 92.0529 -146.81104 92.11196 -146.64568 curveto
closepath
90.80684 -146.00197 moveto
92.11787 -146.00197 lineto
92.10212 -145.80118 92.05291 -145.65158 91.97023 -145.55315 curveto
91.84031 -145.3996 91.67495 -145.32283 91.47417 -145.32283 curveto
91.28912 -145.32283 91.1346 -145.38385 91.01058 -145.5059 curveto
90.886566 -145.62796 90.81865 -145.7933 90.80684 -146.00197 curveto
closepath
95.04995 -148.35826 moveto
94.82948 -148.07874 94.643456 -147.75296 94.49188 -147.3809 curveto
94.34031 -147.00885 94.26452 -146.62401 94.26452 -146.22638 curveto
94.26452 -145.87599 94.31963 -145.53937 94.42987 -145.21654 curveto
94.56373 -144.84253 94.770424 -144.47047 95.04995 -144.10039 curveto
95.33341 -144.10039 lineto
95.15625 -144.40747 95.03814 -144.62598 94.97909 -144.7559 curveto
94.888535 -144.96063 94.817665 -145.17323 94.76649 -145.3937 curveto
94.70349 -145.6693 94.672 -145.94685 94.672 -146.22638 curveto
94.672 -146.93898 94.89247 -147.6496 95.33341 -148.35826 curveto
95.04995 -148.35826 lineto
closepath
95.85753 -147.40158 moveto
95.85753 -144.15355 lineto
98.20202 -144.15355 lineto
98.20202 -144.5374 lineto
96.288635 -144.5374 lineto
96.288635 -145.52953 lineto
98.08391 -145.52953 lineto
98.08391 -145.91339 lineto
96.288635 -145.91339 lineto
96.288635 -147.01772 lineto
98.278786 -147.01772 lineto
98.278786 -147.40158 lineto
95.85753 -147.40158 lineto
closepath
98.89444 -147.40158 moveto
98.89444 -144.15355 lineto
101.08538 -144.15355 lineto
101.08538 -144.5374 lineto
99.32554 -144.5374 lineto
99.32554 -145.54134 lineto
100.84917 -145.54134 lineto
100.84917 -145.9252 lineto
99.32554 -145.9252 lineto
99.32554 -147.40158 lineto
98.89444 -147.40158 lineto
closepath
103.16486 -146.12599 moveto
103.16486 -145.74803 lineto
104.53494 -145.74213 lineto
104.53494 -146.94685 lineto
104.32628 -147.11615 104.10974 -147.24312 103.88534 -147.32776 curveto
103.66093 -147.4124 103.43061 -147.45473 103.19439 -147.45473 curveto
102.87549 -147.45473 102.58514 -147.38681 102.323326 -147.25099 curveto
102.061516 -147.11516 101.86466 -146.9183 101.73277 -146.66043 curveto
101.60088 -146.40256 101.53494 -146.11417 101.53494 -145.79527 curveto
101.53494 -145.47638 101.60088 -145.18011 101.73277 -144.9065 curveto
101.86466 -144.63287 102.05463 -144.43011 102.30266 -144.29823 curveto
102.55069 -144.16634 102.83612 -144.10039 103.15896 -144.10039 curveto
103.39518 -144.10039 103.60778 -144.13779 103.79675 -144.2126 curveto
103.985725 -144.2874 104.134346 -144.39272 104.242615 -144.52855 curveto
104.35088 -144.66437 104.43258 -144.84251 104.48769 -145.06299 curveto
104.103836 -145.1693 lineto
104.05266 -145.00394 103.990654 -144.87402 103.917816 -144.77953 curveto
103.84498 -144.68504 103.74163 -144.60925 103.60777 -144.55217 curveto
103.473915 -144.49509 103.32628 -144.46654 103.16486 -144.46654 curveto
102.96801 -144.46654 102.79774 -144.49606 102.65404 -144.55511 curveto
102.51034 -144.61418 102.394196 -144.69292 102.30561 -144.79134 curveto
102.217026 -144.88977 102.14912 -144.99803 102.10187 -145.11613 curveto
102.01919 -145.31693 101.97785 -145.53346 101.97785 -145.76575 curveto
101.97785 -146.05708 102.02805 -146.3002 102.12845 -146.49507 curveto
102.22884 -146.68996 102.37353 -146.83464 102.5625 -146.92914 curveto
102.75147 -147.02362 102.95423 -147.07086 103.17077 -147.07086 curveto
103.355804 -147.07086 103.53691 -147.03444 103.71407 -146.96161 curveto
103.891235 -146.88878 104.02509 -146.81299 104.11565 -146.73425 curveto
104.11565 -146.12599 lineto
103.16486 -146.12599 lineto
closepath
105.381645 -148.35826 moveto
105.09818 -148.35826 lineto
105.53912 -147.6496 105.7596 -146.93898 105.7596 -146.22638 curveto
105.7596 -145.95079 105.7281 -145.6752 105.66511 -145.39961 curveto
105.61392 -145.17914 105.54306 -144.96654 105.45251 -144.76181 curveto
105.393456 -144.63188 105.275345 -144.4114 105.09818 -144.10039 curveto
105.381645 -144.10039 lineto
105.657234 -144.47047 105.86196 -144.84253 105.99582 -145.21654 curveto
106.10999 -145.53937 106.167076 -145.87599 106.167076 -146.22638 curveto
106.167076 -146.62401 106.0903 -147.00885 105.93676 -147.3809 curveto
105.78322 -147.75296 105.598175 -148.07874 105.381645 -148.35826 curveto
closepath
109.98868 -145.4941 moveto
107.84498 -145.4941 lineto
107.84498 -145.12204 lineto
109.98868 -145.12204 lineto
109.98868 -145.4941 lineto
closepath
109.98868 -146.48032 moveto
107.84498 -146.48032 lineto
107.84498 -146.10826 lineto
109.98868 -146.10826 lineto
109.98868 -146.48032 lineto
closepath
113.78519 -147.01772 moveto
113.78519 -147.40158 lineto
111.63558 -147.40158 lineto
111.63558 -147.30708 111.65133 -147.21457 111.68282 -147.12401 curveto
111.737946 -146.97835 111.82554 -146.83466 111.94562 -146.69292 curveto
112.0657 -146.55118 112.239914 -146.3878 112.468254 -146.20276 curveto
112.822586 -145.91142 113.06176 -145.6811 113.185776 -145.51181 curveto
113.30979 -145.34251 113.3718 -145.18307 113.3718 -145.03346 curveto
113.3718 -144.87598 113.31471 -144.7431 113.20054 -144.63484 curveto
113.086365 -144.52658 112.93873 -144.47244 112.75763 -144.47244 curveto
112.56471 -144.47244 112.41117 -144.52953 112.297 -144.6437 curveto
112.18282 -144.75787 112.12377 -144.91731 112.119835 -145.12204 curveto
111.71235 -145.0807 lineto
111.739914 -144.77362 111.84523 -144.54034 112.0283 -144.3809 curveto
112.211365 -144.22147 112.45841 -144.14174 112.76944 -144.14174 curveto
113.08047 -144.14174 113.32653 -144.22835 113.50763 -144.40158 curveto
113.68873 -144.57481 113.77928 -144.78937 113.77928 -145.04527 curveto
113.77928 -145.1752 113.75271 -145.30217 113.699554 -145.42618 curveto
113.64641 -145.55019 113.55782 -145.68208 113.43381 -145.82185 curveto
113.30979 -145.96161 113.10606 -146.15158 112.822586 -146.39174 curveto
112.58243 -146.59253 112.4279 -146.72934 112.35901 -146.80217 curveto
112.29011 -146.875 112.23401 -146.94685 112.1907 -147.01772 curveto
113.78519 -147.01772 lineto
closepath
114.825294 -145.64174 moveto
114.65994 -145.57874 114.53691 -145.49113 114.4562 -145.37894 curveto
114.37549 -145.26674 114.33514 -145.13387 114.33514 -144.98032 curveto
114.33514 -144.7441 114.42077 -144.54529 114.592026 -144.38387 curveto
114.76328 -144.22244 114.98868 -144.14174 115.26821 -144.14174 curveto
115.551674 -144.14174 115.78002 -144.22441 115.95325 -144.38977 curveto
116.12647 -144.55513 116.21309 -144.7559 116.21309 -144.99213 curveto
116.21309 -145.14174 116.17372 -145.27165 116.09498 -145.3819 curveto
116.016235 -145.49213 115.89616 -145.57874 115.73474 -145.64174 curveto
115.93553 -145.70473 116.087105 -145.80905 116.18947 -145.95473 curveto
116.29183 -146.1004 116.34301 -146.27362 116.34301 -146.47441 curveto
116.34301 -146.75 116.24557 -146.98228 116.05069 -147.17126 curveto
115.85581 -147.36024 115.596954 -147.45473 115.27412 -147.45473 curveto
114.955215 -147.45473 114.69734 -147.36024 114.500496 -147.17126 curveto
114.30364 -146.98228 114.205215 -146.74606 114.205215 -146.4626 curveto
114.205215 -146.25 114.259346 -146.07285 114.367615 -145.9311 curveto
114.47588 -145.78937 114.62845 -145.69292 114.825294 -145.64174 curveto
closepath
114.742615 -144.9626 moveto
114.742615 -145.11615 114.792816 -145.24213 114.89321 -145.34055 curveto
114.99361 -145.43898 115.12254 -145.48819 115.28002 -145.48819 curveto
115.43356 -145.48819 115.55955 -145.43996 115.657974 -145.3435 curveto
115.7564 -145.24706 115.80561 -145.12796 115.80561 -144.98622 curveto
115.80561 -144.84055 115.75443 -144.71751 115.65207 -144.61713 curveto
115.549706 -144.51674 115.42372 -144.46654 115.27412 -144.46654 curveto
115.120575 -144.46654 114.99361 -144.51575 114.89321 -144.61417 curveto
114.792816 -144.7126 114.742615 -144.82874 114.742615 -144.9626 curveto
closepath
114.6186 -146.4626 moveto
114.6186 -146.57678 114.64517 -146.68701 114.698326 -146.7933 curveto
114.75148 -146.89961 114.8312 -146.98228 114.9375 -147.04134 curveto
115.0438 -147.1004 115.157974 -147.12993 115.28002 -147.12993 curveto
115.468994 -147.12993 115.62549 -147.06891 115.749504 -146.94685 curveto
115.87352 -146.8248 115.93553 -146.6693 115.93553 -146.48032 curveto
115.93553 -146.2874 115.872536 -146.12796 115.74655 -146.00197 curveto
115.62057 -145.87598 115.46112 -145.81299 115.26821 -145.81299 curveto
115.07923 -145.81299 114.92372 -145.875 114.801674 -145.99901 curveto
114.67963 -146.12303 114.6186 -146.27756 114.6186 -146.4626 curveto
closepath
116.957924 -147.40158 moveto
116.957924 -146.94685 lineto
117.41265 -146.94685 lineto
117.41265 -147.40158 lineto
116.957924 -147.40158 lineto
closepath
120.06053 -144.95079 moveto
119.66486 -144.98032 lineto
119.629425 -144.82283 119.580215 -144.70866 119.51723 -144.6378 curveto
119.40699 -144.52362 119.273125 -144.46654 119.11565 -144.46654 curveto
118.98966 -144.46654 118.877464 -144.50197 118.77904 -144.57283 curveto
118.65699 -144.66733 118.55955 -144.80217 118.48671 -144.97736 curveto
118.41388 -145.15256 118.375496 -145.40158 118.37155 -145.72441 curveto
118.46604 -145.57874 118.58317 -145.47047 118.72293 -145.39961 curveto
118.86269 -145.32874 119.00935 -145.2933 119.162895 -145.2933 curveto
119.426674 -145.2933 119.65207 -145.39172 119.83907 -145.58858 curveto
120.02608 -145.78543 120.11958 -146.0374 120.11958 -146.34448 curveto
120.11958 -146.54921 120.075294 -146.73918 119.98671 -146.91437 curveto
119.898125 -147.08957 119.77706 -147.22343 119.62352 -147.31595 curveto
119.46998 -147.40846 119.29675 -147.45473 119.103836 -147.45473 curveto
118.76919 -147.45473 118.497536 -147.33267 118.28888 -147.08858 curveto
118.080215 -146.84448 117.97588 -146.44292 117.97588 -145.88387 curveto
117.97588 -145.25394 118.092026 -144.79724 118.32431 -144.51378 curveto
118.5251 -144.26575 118.79675 -144.14174 119.139275 -144.14174 curveto
119.39518 -144.14174 119.60483 -144.2136 119.76821 -144.35728 curveto
119.931595 -144.50098 120.02904 -144.69882 120.06053 -144.95079 curveto
closepath
118.436516 -146.35039 moveto
118.436516 -146.48819 118.46506 -146.6191 118.52215 -146.7431 curveto
118.57923 -146.86713 118.65994 -146.9626 118.764275 -147.02953 curveto
118.86861 -147.09647 118.97982 -147.12993 119.09793 -147.12993 curveto
119.26328 -147.12993 119.40699 -147.06201 119.52904 -146.92618 curveto
119.651085 -146.79036 119.712105 -146.6063 119.712105 -146.37401 curveto
119.712105 -146.1496 119.65207 -145.97244 119.53199 -145.84251 curveto
119.41191 -145.7126 119.261314 -145.64764 119.080215 -145.64764 curveto
118.89912 -145.64764 118.74655 -145.7126 118.622536 -145.84251 curveto
118.49852 -145.97244 118.436516 -146.14172 118.436516 -146.35039 curveto
closepath
122.61245 -147.01772 moveto
122.61245 -147.40158 lineto
120.462845 -147.40158 lineto
120.462845 -147.30708 120.47859 -147.21457 120.510086 -147.12401 curveto
120.56521 -146.97835 120.6528 -146.83466 120.77288 -146.69292 curveto
120.89296 -146.55118 121.06718 -146.3878 121.295525 -146.20276 curveto
121.64986 -145.91142 121.88902 -145.6811 122.01304 -145.51181 curveto
122.137054 -145.34251 122.199066 -145.18307 122.199066 -145.03346 curveto
122.199066 -144.87598 122.141975 -144.7431 122.0278 -144.63484 curveto
121.91363 -144.52658 121.76599 -144.47244 121.58489 -144.47244 curveto
121.39198 -144.47244 121.238434 -144.52953 121.12426 -144.6437 curveto
121.010086 -144.75787 120.951035 -144.91731 120.9471 -145.12204 curveto
120.53962 -145.0807 lineto
120.56718 -144.77362 120.67249 -144.54034 120.85556 -144.3809 curveto
121.03863 -144.22147 121.285675 -144.14174 121.5967 -144.14174 curveto
121.90773 -144.14174 122.15379 -144.22835 122.33489 -144.40158 curveto
122.51599 -144.57481 122.606544 -144.78937 122.606544 -145.04527 curveto
122.606544 -145.1752 122.57997 -145.30217 122.52682 -145.42618 curveto
122.47367 -145.55019 122.385086 -145.68208 122.26107 -145.82185 curveto
122.137054 -145.96161 121.93332 -146.15158 121.64985 -146.39174 curveto
121.4097 -146.59253 121.25517 -146.72934 121.18627 -146.80217 curveto
121.11737 -146.875 121.06127 -146.94685 121.01796 -147.01772 curveto
122.61245 -147.01772 lineto
closepath
124.68602 -146.53937 moveto
125.07579 -146.59251 lineto
125.03248 -146.86023 124.92224 -147.07086 124.74508 -147.22441 curveto
124.56792 -147.37796 124.35138 -147.45473 124.095474 -147.45473 curveto
123.77264 -147.45473 123.51378 -147.34941 123.3189 -147.13878 curveto
123.124016 -146.92815 123.02657 -146.62598 123.02657 -146.23228 curveto
123.02657 -145.98032 123.06889 -145.75885 123.15354 -145.56792 curveto
123.23819 -145.37697 123.36614 -145.23425 123.5374 -145.13977 curveto
123.70866 -145.04527 123.89665 -144.99803 124.10138 -144.99803 curveto
124.35335 -144.99803 124.56103 -145.06201 124.72441 -145.18996 curveto
124.887794 -145.31792 124.99311 -145.50197 125.04035 -145.74213 curveto
124.65059 -145.80118 lineto
124.61516 -145.64369 124.5502 -145.5246 124.45571 -145.4439 curveto
124.36122 -145.36319 124.24705 -145.32283 124.11319 -145.32283 curveto
123.9124 -145.32283 123.749016 -145.39468 123.62303 -145.53839 curveto
123.49705 -145.68208 123.43405 -145.90945 123.43405 -146.22047 curveto
123.43405 -146.53937 123.49508 -146.76968 123.61713 -146.91142 curveto
123.739174 -147.05315 123.89665 -147.12401 124.08957 -147.12401 curveto
124.24705 -147.12401 124.37795 -147.07677 124.482285 -146.98228 curveto
124.58662 -146.88779 124.654526 -146.74016 124.68602 -146.53937 curveto
closepath
125.418304 -147.40158 moveto
125.418304 -145.05118 lineto
125.77264 -145.05118 lineto
125.77264 -145.3819 lineto
125.84744 -145.26378 125.94587 -145.17027 126.06792 -145.10138 curveto
126.189964 -145.03249 126.32973 -144.99803 126.487206 -144.99803 curveto
126.66043 -144.99803 126.80315 -145.03346 126.91535 -145.10432 curveto
127.02756 -145.1752 127.105316 -145.27559 127.14862 -145.40552 curveto
127.33759 -145.13387 127.57972 -144.99803 127.875 -144.99803 curveto
128.11122 -144.99803 128.29134 -145.06201 128.41536 -145.18996 curveto
128.53937 -145.31792 128.60138 -145.51772 128.60138 -145.78937 curveto
128.60138 -147.40158 lineto
128.2057 -147.40158 lineto
128.2057 -145.9193 lineto
128.2057 -145.76181 128.19292 -145.64764 128.16733 -145.57677 curveto
128.14174 -145.5059 128.09547 -145.44882 128.02855 -145.40552 curveto
127.96162 -145.3622 127.880905 -145.34055 127.786415 -145.34055 curveto
127.62106 -145.34055 127.48425 -145.39566 127.375984 -145.5059 curveto
127.267715 -145.61615 127.213585 -145.7933 127.213585 -146.0374 curveto
127.213585 -147.40158 lineto
126.812004 -147.40158 lineto
126.812004 -145.87204 lineto
126.812004 -145.69487 126.779526 -145.562 126.71457 -145.47342 curveto
126.649605 -145.38484 126.54429 -145.34055 126.39862 -145.34055 curveto
126.28445 -145.34055 126.18012 -145.37007 126.08563 -145.42914 curveto
125.99114 -145.48819 125.92225 -145.5748 125.87894 -145.68898 curveto
125.83563 -145.80315 125.81398 -145.96654 125.81398 -146.17914 curveto
125.81398 -147.40158 lineto
125.418304 -147.40158 lineto
closepath
128.94833 -145.77756 moveto
128.96014 -145.69489 128.99557 -145.61024 129.05463 -145.52362 curveto
129.14912 -145.39763 129.30266 -145.25787 129.51526 -145.10432 curveto
129.72786 -144.95078 129.85384 -144.85039 129.8932 -144.80315 curveto
129.94833 -144.7441 129.97589 -144.68307 129.97589 -144.62007 curveto
129.97589 -144.54921 129.94931 -144.49113 129.89616 -144.44586 curveto
129.84302 -144.40059 129.76723 -144.37796 129.6688 -144.37796 curveto
129.57037 -144.37796 129.49754 -144.39468 129.4503 -144.42815 curveto
129.40305 -144.46161 129.36368 -144.52756 129.33218 -144.62599 curveto
128.99557 -144.59055 lineto
129.03888 -144.42912 129.11368 -144.30905 129.21999 -144.23032 curveto
129.32628 -144.15157 129.47784 -144.1122 129.6747 -144.1122 curveto
129.89911 -144.1122 130.06349 -144.1565 130.16782 -144.24507 curveto
130.27214 -144.33366 130.32431 -144.44095 130.32431 -144.56693 curveto
130.32431 -144.68898 130.27904 -144.80511 130.18849 -144.91536 curveto
130.12549 -144.99803 129.97589 -145.12401 129.73967 -145.2933 curveto
129.61368 -145.38387 129.5251 -145.4567 129.47392 -145.51181 curveto
130.33022 -145.51181 lineto
130.33022 -145.77756 lineto
128.94833 -145.77756 lineto
closepath
fill
newpath
0.0 0.0 0.0 setrgbcolor
newpath
216.87033 -134.55118 moveto
216.47466 -134.55118 lineto
216.47466 -132.01181 lineto
216.37622 -132.10237 216.24925 -132.19391 216.09375 -132.28642 curveto
215.93825 -132.37894 215.79947 -132.44685 215.67741 -132.49016 curveto
215.67741 -132.1063 lineto
215.89789 -132.0 216.09178 -131.87303 216.25911 -131.72539 curveto
216.42642 -131.57776 216.54552 -131.43307 216.6164 -131.29134 curveto
216.87033 -131.29134 lineto
216.87033 -134.55118 lineto
closepath
217.89272 -132.95079 moveto
217.89272 -132.56496 217.93208 -132.25491 218.01083 -132.02068 curveto
218.08957 -131.78642 218.2067 -131.60631 218.3622 -131.48032 curveto
218.51772 -131.35432 218.71358 -131.29134 218.9498 -131.29134 curveto
219.12303 -131.29134 219.27559 -131.32677 219.40749 -131.39764 curveto
219.53937 -131.4685 219.64862 -131.56989 219.73523 -131.70177 curveto
219.82185 -131.83366 219.88878 -131.9941 219.93602 -132.18307 curveto
219.98328 -132.37206 220.0069 -132.62796 220.0069 -132.95079 curveto
220.0069 -133.33267 219.9685 -133.63976 219.89174 -133.87204 curveto
219.81497 -134.10432 219.69882 -134.28445 219.5433 -134.4124 curveto
219.3878 -134.54034 219.18996 -134.60432 218.9498 -134.60432 curveto
218.63878 -134.60432 218.39272 -134.49213 218.21161 -134.26772 curveto
217.99901 -134.0 217.89272 -133.56102 217.89272 -132.95079 curveto
closepath
218.3002 -132.95079 moveto
218.3002 -133.48228 218.36319 -133.83661 218.48917 -134.01378 curveto
218.61516 -134.19095 218.76869 -134.27953 218.9498 -134.27953 curveto
219.13484 -134.27953 219.28937 -134.19095 219.41339 -134.01378 curveto
219.5374 -133.83661 219.59941 -133.48228 219.59941 -132.95079 curveto
219.59941 -132.41536 219.5374 -132.06004 219.41339 -131.88484 curveto
219.28937 -131.70964 219.13287 -131.62204 218.9439 -131.62204 curveto
218.76279 -131.62204 218.61713 -131.6988 218.5069 -131.85236 curveto
218.3691 -132.04921 218.3002 -132.41536 218.3002 -132.95079 curveto
closepath
223.32283 -133.68898 moveto
223.7126 -133.74213 lineto
223.6693 -134.00984 223.55907 -134.22047 223.3819 -134.37401 curveto
223.20473 -134.52756 222.98819 -134.60432 222.73228 -134.60432 curveto
222.40945 -134.60432 222.15059 -134.49901 221.9557 -134.28839 curveto
221.76083 -134.07776 221.66339 -133.77559 221.66339 -133.3819 curveto
221.66339 -133.12993 221.70572 -132.90846 221.79036 -132.71751 curveto
221.875 -132.52658 222.00296 -132.38387 222.17421 -132.28937 curveto
222.34547 -132.19489 222.53346 -132.14764 222.73819 -132.14764 curveto
222.99016 -132.14764 223.19783 -132.21162 223.36122 -132.33957 curveto
223.5246 -132.46751 223.62991 -132.65158 223.67717 -132.89174 curveto
223.2874 -132.95079 lineto
223.25197 -132.7933 223.18701 -132.67421 223.09251 -132.5935 curveto
222.99803 -132.5128 222.88387 -132.47244 222.75 -132.47244 curveto
222.54921 -132.47244 222.38583 -132.5443 222.25984 -132.68799 curveto
222.13385 -132.8317 222.07086 -133.05905 222.07086 -133.37007 curveto
222.07086 -133.68896 222.13188 -133.91928 222.25394 -134.06102 curveto
222.37599 -134.20276 222.53346 -134.27362 222.72638 -134.27362 curveto
222.88387 -134.27362 223.01477 -134.22638 223.1191 -134.1319 curveto
223.22342 -134.0374 223.29134 -133.88977 223.32283 -133.68898 curveto
closepath
224.05511 -134.55118 moveto
224.05511 -132.20079 lineto
224.40945 -132.20079 lineto
224.40945 -132.5315 lineto
224.48425 -132.41338 224.58267 -132.31989 224.70473 -132.25099 curveto
224.82678 -132.1821 224.96654 -132.14764 225.12401 -132.14764 curveto
225.29724 -132.14764 225.43997 -132.18307 225.55217 -132.25394 curveto
225.66437 -132.3248 225.74213 -132.42519 225.78543 -132.55511 curveto
225.97441 -132.28346 226.21654 -132.14764 226.51181 -132.14764 curveto
226.74803 -132.14764 226.92815 -132.21162 227.05217 -132.33957 curveto
227.17618 -132.46751 227.23819 -132.66733 227.23819 -132.93898 curveto
227.23819 -134.55118 lineto
226.84251 -134.55118 lineto
226.84251 -133.0689 lineto
226.84251 -132.9114 226.82973 -132.79724 226.80414 -132.72638 curveto
226.77855 -132.6555 226.73228 -132.59842 226.66536 -132.55511 curveto
226.59842 -132.51181 226.51772 -132.49016 226.42323 -132.49016 curveto
226.25787 -132.49016 226.12106 -132.54527 226.0128 -132.65552 curveto
225.90453 -132.76575 225.85039 -132.94292 225.85039 -133.18701 curveto
225.85039 -134.55118 lineto
225.44882 -134.55118 lineto
225.44882 -133.02165 lineto
225.44882 -132.84448 225.41634 -132.71161 225.35138 -132.62303 curveto
225.28642 -132.53445 225.1811 -132.49016 225.03543 -132.49016 curveto
224.92125 -132.49016 224.81693 -132.51968 224.72244 -132.57874 curveto
224.62794 -132.6378 224.55905 -132.72441 224.51575 -132.83858 curveto
224.47244 -132.95276 224.45079 -133.11613 224.45079 -133.32874 curveto
224.45079 -134.55118 lineto
224.05511 -134.55118 lineto
closepath
fill
newpath
0.0 0.0 0.0 setrgbcolor
newpath
63.67323 -134.17323 moveto
63.277557 -134.17323 lineto
63.277557 -131.63387 lineto
63.179134 -131.72441 63.052166 -131.81595 62.896652 -131.90846 curveto
62.741142 -132.00098 62.602364 -132.0689 62.480316 -132.1122 curveto
62.480316 -131.72835 lineto
62.700787 -131.62204 62.894684 -131.49507 63.062008 -131.34744 curveto
63.229332 -131.19981 63.348427 -131.05513 63.419292 -130.91339 curveto
63.67323 -130.91339 lineto
63.67323 -134.17323 lineto
closepath
64.69562 -132.57283 moveto
64.69562 -132.18701 64.734985 -131.87697 64.81373 -131.64272 curveto
64.89247 -131.40846 65.0096 -131.22835 65.16511 -131.10236 curveto
65.32062 -130.97638 65.51649 -130.91339 65.75271 -130.91339 curveto
65.925934 -130.91339 66.07849 -130.94882 66.21038 -131.01968 curveto
66.34227 -131.09056 66.45152 -131.19194 66.53814 -131.32382 curveto
66.624756 -131.4557 66.69168 -131.61613 66.73893 -131.80511 curveto
66.78617 -131.9941 66.80979 -132.25 66.80979 -132.57283 curveto
66.80979 -132.95473 66.77141 -133.26181 66.69463 -133.4941 curveto
66.61786 -133.72638 66.501724 -133.9065 66.346214 -134.03445 curveto
66.190704 -134.1624 65.99287 -134.22638 65.75271 -134.22638 curveto
65.44168 -134.22638 65.19562 -134.11418 65.01452 -133.88977 curveto
64.80192 -133.62206 64.69562 -133.18307 64.69562 -132.57283 curveto
closepath
65.1031 -132.57283 moveto
65.1031 -133.10432 65.16609 -133.45866 65.292076 -133.63583 curveto
65.41806 -133.813 65.57161 -133.90158 65.75271 -133.90158 curveto
65.937744 -133.90158 66.09227 -133.813 66.216286 -133.63583 curveto
66.3403 -133.45866 66.40231 -133.10432 66.40231 -132.57283 curveto
66.40231 -132.0374 66.3403 -131.68208 66.216286 -131.5069 curveto
66.09227 -131.3317 65.935776 -131.2441 65.7468 -131.2441 curveto
65.565704 -131.2441 65.42003 -131.32086 65.30979 -131.47441 curveto
65.172 -131.67126 65.1031 -132.0374 65.1031 -132.57283 curveto
closepath
70.12574 -133.31102 moveto
70.5155 -133.36417 lineto
70.47219 -133.63188 70.36195 -133.84251 70.18479 -133.99606 curveto
70.00763 -134.14961 69.79109 -134.22638 69.53519 -134.22638 curveto
69.21235 -134.22638 68.95349 -134.12106 68.75861 -133.91043 curveto
68.56373 -133.6998 68.466286 -133.39763 68.466286 -133.00394 curveto
68.466286 -132.75197 68.508606 -132.53052 68.593254 -132.33957 curveto
68.6779 -132.14862 68.80586 -132.0059 68.97712 -131.91142 curveto
69.14838 -131.81693 69.33637 -131.76968 69.54109 -131.76968 curveto
69.79306 -131.76968 70.00074 -131.83366 70.16412 -131.96161 curveto
70.32751 -132.08957 70.43282 -132.27362 70.48007 -132.51378 curveto
70.0903 -132.57283 lineto
70.05487 -132.41534 69.989914 -132.29625 69.895424 -132.21555 curveto
69.800934 -132.13484 69.68676 -132.09448 69.5529 -132.09448 curveto
69.35212 -132.09448 69.18873 -132.16634 69.062744 -132.31004 curveto
68.93676 -132.45374 68.87377 -132.6811 68.87377 -132.99213 curveto
68.87377 -133.31102 68.93479 -133.54134 69.05684 -133.68307 curveto
69.17889 -133.82481 69.33637 -133.89568 69.52928 -133.89568 curveto
69.68676 -133.89568 69.817665 -133.84843 69.922 -133.75394 curveto
70.02633 -133.65944 70.09424 -133.51181 70.12574 -133.31102 curveto
closepath
70.858025 -134.17323 moveto
70.858025 -131.82283 lineto
71.21235 -131.82283 lineto
71.21235 -132.15355 lineto
71.287155 -132.03543 71.38558 -131.94193 71.50763 -131.87303 curveto
71.62968 -131.80414 71.76944 -131.76968 71.92692 -131.76968 curveto
72.10014 -131.76968 72.24287 -131.80511 72.35507 -131.87599 curveto
72.46728 -131.94685 72.54503 -132.04724 72.58833 -132.17717 curveto
72.77731 -131.90552 73.01944 -131.76968 73.31471 -131.76968 curveto
73.550934 -131.76968 73.73106 -131.83366 73.85507 -131.96161 curveto
73.97909 -132.08957 74.04109 -132.28937 74.04109 -132.56102 curveto
74.04109 -134.17323 lineto
73.645424 -134.17323 lineto
73.645424 -132.69095 lineto
73.645424 -132.53346 73.63263 -132.4193 73.60704 -132.34842 curveto
73.58144 -132.27756 73.53519 -132.22047 73.468254 -132.17717 curveto
73.40133 -132.13385 73.320625 -132.1122 73.226135 -132.1122 curveto
73.06078 -132.1122 72.923965 -132.16731 72.8157 -132.27756 curveto
72.70743 -132.3878 72.6533 -132.56496 72.6533 -132.80905 curveto
72.6533 -134.17323 lineto
72.251724 -134.17323 lineto
72.251724 -132.6437 lineto
72.251724 -132.46654 72.219246 -132.33366 72.15428 -132.24507 curveto
72.08932 -132.1565 71.984 -132.1122 71.83833 -132.1122 curveto
71.72416 -132.1122 71.619835 -132.14172 71.525345 -132.20079 curveto
71.430855 -132.25984 71.36196 -132.34645 71.31865 -132.46063 curveto
71.275345 -132.57481 71.25369 -132.73819 71.25369 -132.95079 curveto
71.25369 -134.17323 lineto
70.858025 -134.17323 lineto
closepath
fill
newpath
0.0 0.0 0.0 setrgbcolor
newpath
147.3248 -141.73228 moveto
147.3248 -138.48425 lineto
147.72047 -138.48425 lineto
147.72047 -139.64764 lineto
147.90552 -139.43504 148.13977 -139.32874 148.42323 -139.32874 curveto
148.6004 -139.32874 148.75296 -139.36319 148.8809 -139.43208 curveto
149.00885 -139.50098 149.10039 -139.59547 149.15552 -139.71555 curveto
149.21063 -139.83563 149.23819 -140.01181 149.23819 -140.2441 curveto
149.23819 -141.73228 lineto
148.84251 -141.73228 lineto
148.84251 -140.2441 lineto
148.84251 -140.0433 148.79921 -139.89764 148.7126 -139.80708 curveto
148.62598 -139.71654 148.50394 -139.67126 148.34645 -139.67126 curveto
148.22835 -139.67126 148.11713 -139.70178 148.0128 -139.7628 curveto
147.90846 -139.82382 147.83366 -139.9065 147.78839 -140.01083 curveto
147.74312 -140.11516 147.72047 -140.25984 147.72047 -140.44489 curveto
147.72047 -141.73228 lineto
147.3248 -141.73228 lineto
closepath
153.20374 -139.8248 moveto
151.06004 -139.8248 lineto
151.06004 -139.45276 lineto
153.20374 -139.45276 lineto
153.20374 -139.8248 lineto
closepath
153.20374 -140.81102 moveto
151.06004 -140.81102 lineto
151.06004 -140.43898 lineto
153.20374 -140.43898 lineto
153.20374 -140.81102 lineto
closepath
154.9038 -140.87599 moveto
155.30536 -140.82283 lineto
155.34868 -141.04724 155.42545 -141.20966 155.53568 -141.31004 curveto
155.64592 -141.41043 155.77977 -141.46063 155.93726 -141.46063 curveto
156.12624 -141.46063 156.28568 -141.39568 156.4156 -141.26575 curveto
156.54553 -141.13582 156.61049 -140.97441 156.61049 -140.7815 curveto
156.61049 -140.60039 156.55045 -140.4498 156.43036 -140.32973 curveto
156.31029 -140.20966 156.15773 -140.14961 155.97269 -140.14961 curveto
155.89789 -140.14961 155.8034 -140.16536 155.68922 -140.19685 curveto
155.73647 -139.84251 lineto
155.76402 -139.84645 155.78568 -139.84842 155.80142 -139.84842 curveto
155.97072 -139.84842 156.12328 -139.80412 156.25911 -139.71555 curveto
156.39493 -139.62697 156.46284 -139.49016 156.46284 -139.30511 curveto
156.46284 -139.15944 156.41364 -139.03838 156.3152 -138.94193 curveto
156.21678 -138.84547 156.08884 -138.79724 155.93135 -138.79724 curveto
155.7778 -138.79724 155.64886 -138.84645 155.54454 -138.94489 curveto
155.44022 -139.0433 155.37427 -139.18898 155.34671 -139.3819 curveto
154.94513 -139.31102 lineto
154.99237 -139.04724 155.1026 -138.84154 155.27583 -138.6939 curveto
155.44907 -138.54626 155.66364 -138.47244 155.91954 -138.47244 curveto
156.09671 -138.47244 156.26009 -138.51083 156.4097 -138.5876 curveto
156.55931 -138.66437 156.67348 -138.76772 156.75221 -138.89764 curveto
156.83096 -139.02756 156.87033 -139.16731 156.87033 -139.31693 curveto
156.87033 -139.45473 156.83293 -139.5817 156.75812 -139.69783 curveto
156.68332 -139.81396 156.57309 -139.9055 156.42741 -139.97244 curveto
156.6164 -140.01575 156.76402 -140.10728 156.87033 -140.24704 curveto
156.97662 -140.38681 157.02977 -140.56299 157.02977 -140.77559 curveto
157.02977 -141.05905 156.92642 -141.29921 156.71974 -141.49606 curveto
156.51305 -141.69292 156.25221 -141.79134 155.93726 -141.79134 curveto
155.6538 -141.79134 155.41757 -141.7057 155.22859 -141.53445 curveto
155.03961 -141.36319 154.93135 -141.1437 154.9038 -140.87599 curveto
closepath
159.07382 -140.87007 moveto
159.46358 -140.92323 lineto
159.42027 -141.19095 159.31004 -141.40157 159.13287 -141.55511 curveto
158.9557 -141.70866 158.73917 -141.78543 158.48326 -141.78543 curveto
158.16043 -141.78543 157.90157 -141.68011 157.7067 -141.46948 curveto
157.51181 -141.25887 157.41437 -140.9567 157.41437 -140.56299 curveto
157.41437 -140.31102 157.4567 -140.08957 157.54134 -139.89862 curveto
157.62598 -139.70767 157.75394 -139.56496 157.9252 -139.47047 curveto
158.09645 -139.37598 158.28444 -139.32874 158.48917 -139.32874 curveto
158.74113 -139.32874 158.94882 -139.39272 159.1122 -139.52068 curveto
159.27559 -139.64862 159.3809 -139.83267 159.42815 -140.07283 curveto
159.03839 -140.1319 lineto
159.00294 -139.97441 158.93799 -139.85532 158.8435 -139.77461 curveto
158.74901 -139.69391 158.63484 -139.65355 158.50099 -139.65355 curveto
158.3002 -139.65355 158.13681 -139.7254 158.01083 -139.8691 curveto
157.88484 -140.01279 157.82185 -140.24016 157.82185 -140.55118 curveto
157.82185 -140.87007 157.88287 -141.10039 158.00493 -141.24213 curveto
158.12697 -141.38387 158.28444 -141.45473 158.47736 -141.45473 curveto
158.63484 -141.45473 158.76575 -141.40749 158.87007 -141.31299 curveto
158.97441 -141.2185 159.04233 -141.07086 159.07382 -140.87007 curveto
closepath
159.8061 -141.73228 moveto
159.8061 -139.3819 lineto
160.16043 -139.3819 lineto
160.16043 -139.7126 lineto
160.23524 -139.59448 160.33366 -139.50098 160.4557 -139.43208 curveto
160.57776 -139.36319 160.71751 -139.32874 160.875 -139.32874 curveto
161.04823 -139.32874 161.19095 -139.36417 161.30315 -139.43504 curveto
161.41534 -139.5059 161.4931 -139.6063 161.53642 -139.73622 curveto
161.7254 -139.46457 161.96753 -139.32874 162.2628 -139.32874 curveto
162.49902 -139.32874 162.67914 -139.39272 162.80315 -139.52068 curveto
162.92715 -139.64862 162.98917 -139.84842 162.98917 -140.12007 curveto
162.98917 -141.73228 lineto
162.5935 -141.73228 lineto
162.5935 -140.25 lineto
162.5935 -140.09251 162.5807 -139.97835 162.55511 -139.90749 curveto
162.52953 -139.83661 162.48328 -139.77953 162.41634 -139.73622 curveto
162.34941 -139.69292 162.2687 -139.67126 162.17421 -139.67126 curveto
162.00885 -139.67126 161.87204 -139.72638 161.76378 -139.83661 curveto
161.65552 -139.94685 161.60138 -140.12401 161.60138 -140.3681 curveto
161.60138 -141.73228 lineto
161.1998 -141.73228 lineto
161.1998 -140.20276 lineto
161.1998 -140.02559 161.16731 -139.89272 161.10236 -139.80414 curveto
161.0374 -139.71556 160.9321 -139.67126 160.78642 -139.67126 curveto
160.67224 -139.67126 160.56792 -139.70079 160.47342 -139.75984 curveto
160.37894 -139.8189 160.31004 -139.9055 160.26674 -140.01968 curveto
160.22342 -140.13387 160.20177 -140.29724 160.20177 -140.50984 curveto
160.20177 -141.73228 lineto
159.8061 -141.73228 lineto
closepath
fill
newpath
grestore
grestore
showpage

%%EOF