verbatimtex
%&latex
\documentclass{article}
\usepackage{amsmath}
\usepackage[T1]{fontenc}
\begin{document}
etex

input geometriesyr16;

u:=0.7cm;
beginfig(1);
figure(0,0,11.5u,15u);
pair A,B,C,M,N;
marque_p:="plein";
B=u*(0.5,0.5);
C=u*(11,0.5);
A=cercles(B,12u) intersectionpoint cercles(C,15u);
pointe(A);
pointe(B);
pointe(C);
nomme.top(A);
nomme.lft(B);
nomme.rt(C);
trace segment(A,B);
trace segment(A,C);
trace segment(B,C);
M=1/3[A,B];
N=1/3[A,C];
pointe(M);
pointe(N);
nomme.lft(M);
nomme.rt(N);
trace segment(M,N);
fin;
endfig;

beginfig(2);
figure(0,0,8u,10u);
trace feuillet withcolor blanc;
pair D,E,F,G,H;
F=u*(2,1);
E=u*(1,8);
D=u*(7,9);
G=3/8[F,E];
H=3/8[F,D];
trace triangle(D,E,F);
trace segment(G,H);
pointe(D);
nomme.rt(D);
pointe(E);
nomme.lft(E);
pointe(G);
nomme.lft(G);
pointe(F);
nomme.bot(F);
pointe(H);
nomme.rt(H);
fin;
endfig;

beginfig(3);
figure(0,0,8u,10u);
trace feuillet withcolor blanc;
pair M,P,Q,A,B;
Q=u*(4,9);
P=u*(2,2);
M=u*(7,1);
A=3/4[Q,P];
B=3/4[Q,M];
trace triangle(M,P,Q);
trace segment(A,B);
pointe(M);
nomme.rt(M);
pointe(P);
nomme.lft(P);
pointe(A);
nomme.lft(A);
pointe(Q);
nomme.top(Q);
pointe(B);
nomme.rt(B);
fin;
endfig;

beginfig(4);
figure(0,0,8u,10u);
trace feuillet withcolor blanc;
pair E,T,S,H,L;
S=u*(7,7);
T=u*(2,1);
E=u*(1,9);
H=7/15[S,T];
L=7/15[S,E];
trace triangle(E,T,S);
trace segment(H,L);
pointe(E);
nomme.top(E);
pointe(T);
nomme.bot(T);
pointe(H);
nomme.bot(H);
pointe(S);
nomme.rt(S);
pointe(L);
nomme.top(L);
fin;
endfig;


