verbatimtex
%&latex
\documentclass{article}
\usepackage{amsmath}
\usepackage[T1]{fontenc}
\begin{document}
etex

input geometriesyr16;

beginfig(1);
figure(0,0,18.5u,11u);
trace grille(0.5) withcolor blanc;
pair A,B,C,D,E,F,G,H;
E=pp(1,1);
F=pp(33,1);
G=pp(17,13);
H=pp(1,13);
remplis polygone(E,F,G,H) withcolor 0.6white;
trace polygone(E,F,G,H);
nomme.llft(E);
nomme.lrt(F);
nomme.urt(G);
nomme.ulft(H);
A=pp(20,15);
B=pp(36,15);
C=pp(28,21);
D=pp(20,21);
remplis polygone(A,B,C,D) withcolor 0.4white;
trace polygone(A,B,C,D);
nomme.llft(A);
nomme.lrt(B);
nomme.urt(C);
nomme.ulft(D);
fin;
endfig;

beginfig(2);
figure(0,0,10u,8u);
pair A,B,C,M,N;
B=u*(2,1);
C=u*(6.5,1);
A=cercles(B,9cm) intersectionpoint cercles(C,6cm);
remplis triangle(A,B,C) withcolor 0.6white;
trace triangle(A,B,C);
nomme.llft(B);
nomme.lrt(C);
nomme.top(A);
M=1/3[A,B];
N=1/3[A,C];
remplis triangle(A,M,N) withcolor 0.4white;
trace segment(M,N);
nomme.lft(M);
nomme.rt(N);
trace cotationmil(M,A,8,5mm,btex 3 cm etex);
trace cotationmil(B,A,16,5mm,btex 9 cm etex);
fin;
endfig;

beginfig(3);
figure(0,0,10u,8u);
pair A,B,C,D,I,J,K;
A=u*(1,7);
B=u*(9,7);
C=u*(9,1);
D=u*(1,1);
I=0.2[A,B];
J=0.2[A,C];
K=0.2[A,D];
remplis polygone(A,B,C,D) withcolor 0.6white;
remplis polygone(I,J,K,A) withcolor 0.4white;
trace polygone(A,B,C,D);
trace polygone(A,I,J,K);
nomme.llft(D);
nomme.lrt(C);
nomme.urt(B);
nomme.ulft(A);
nomme.lft(K);
nomme.lrt(J);
nomme.top(I);
trace cotationmil(A,B,16,5mm,btex 8 cm etex);
trace cotationmil(A,I,8,5mm,btex 1,6 cm etex);
trace segment(A,C) dashed evenly;
fin;
endfig;

beginfig(4);
figure(0,0,10u,8u);
pair A,B,C;
A=u*(0.5,3);
B=u*(9.5,3);
C=u*(3.5,3);
trace segment(A,B);
remplis A--B--arccercle(B,A,iso(A,B))--cycle withcolor 0.6white;
remplis B--C--arccercle(C,B,iso(B,C))--cycle withcolor 0.4white;
trace arccercle(B,A,iso(A,B));
trace arccercle(C,B,iso(B,C));
trace cotationmil(A,B,8,5mm,btex 9 cm etex);
trace cotationmil(C,B,-8,5mm,btex 6 cm etex);
trace segment(A,C) dashed evenly;
fin;
endfig;

beginfig(5);
figure(0,0,6u,5u);
pair A,B,C;
A=u*(0.5,1);
B=u*(5.5,2);
C=u*(3.5,4.5);
trace triangle(A,B,C);
fin;
endfig;

beginfig(6);
figure(0,0,12u,8u);
pair A,B,C;
A=u*(0.5,1);
B=u*(0.5,7.5);
C=u*(11.5,0.5);
trace triangle(A,B,C);
fin;
endfig;

beginfig(7);
figure(0,0,8u,5u);
pair A,B,C,D;
A=u*(1.5,0.5);
B=u*(0.5,3.5);
C=u*(7.5,4.5);
D=u*(4.5,0.5);
trace polygone(A,B,C,D);
fin;
endfig;