verbatimtex
%&latex
\documentclass{article}
%\usepackage{perso-thierry}
\usepackage{amsmath}
\usepackage[T1]{fontenc}
\begin{document}
etex



input geometriesyr16;

u:=0.8cm;

beginfig(1);
figure(0,0,5u,5u);
for i=2 upto 8:
trace segment(u*(0.5*i,0.5),u*(0.5*i,4.5)) withcolor orange;
endfor;
for i=2 upto 8:
trace segment(u*(0.5,0.5*i),u*(4.5,0.5*i)) withcolor orange;
endfor;
pair A,B,C,D;
A=u*(0.5,0.5);
B=u*(4.5,0.5);
C=u*(4.5,4.5);
D=A+(C-B);
trace polygone(A,B,C,D) withpen pencircle scaled 1.5pt;
trace segment(iso(A,B),iso(C,D)) dashed evenly withpen pencircle scaled 1.5pt;
trace segment(iso(C,B),iso(A,D)) dashed evenly withpen pencircle scaled 1.5pt;
fin;
endfig;

beginfig(1);
figure(0,0,13u,5u);
for i=2 upto 24:
trace segment(u*(0.5*i,0.5),u*(0.5*i,4.5)) withcolor orange;
endfor;
for i=2 upto 8:
trace segment(u*(0.5,0.5*i),u*(12.5,0.5*i)) withcolor orange;
endfor;
pair A,B,C,D;
A=u*(0.5,0.5);
B=u*(12.5,0.5);
C=u*(12.5,4.5);
D=A+(C-B);
trace polygone(A,B,C,D) withpen pencircle scaled 1.5pt;
trace segment(1/3[A,B],1/3[D,C]) withpen pencircle scaled 1.5pt;
trace segment(2/3[A,B],2/3[D,C]) withpen pencircle scaled 1.5pt;
trace segment(0.25[A,B],0.25[D,C]) dashed evenly withpen pencircle scaled 1.5pt;
trace segment(0.5[A,B],0.5[D,C]) dashed evenly withpen pencircle scaled 1.5pt;
trace segment(0.75[A,B],0.75[D,C]) dashed evenly withpen pencircle scaled 1.5pt;
fin;
endfig;
